%!PS-Adobe-3.0 EPSF-3.0
%%Creator: cairo 1.15.4 (http://cairographics.org)
%%CreationDate: Tue Sep 15 23:13:38 2020
%%Pages: 1
%%DocumentData: Clean7Bit
%%LanguageLevel: 2
%%BoundingBox: 75 325 377 506
%%EndComments
%%BeginProlog
save
50 dict begin
/q { gsave } bind def
/Q { grestore } bind def
/cm { 6 array astore concat } bind def
/w { setlinewidth } bind def
/J { setlinecap } bind def
/j { setlinejoin } bind def
/M { setmiterlimit } bind def
/d { setdash } bind def
/m { moveto } bind def
/l { lineto } bind def
/c { curveto } bind def
/h { closepath } bind def
/re { exch dup neg 3 1 roll 5 3 roll moveto 0 rlineto
      0 exch rlineto 0 rlineto closepath } bind def
/S { stroke } bind def
/f { fill } bind def
/f* { eofill } bind def
/n { newpath } bind def
/W { clip } bind def
/W* { eoclip } bind def
/BT { } bind def
/ET { } bind def
/pdfmark where { pop globaldict /?pdfmark /exec load put }
    { globaldict begin /?pdfmark /pop load def /pdfmark
    /cleartomark load def end } ifelse
/BDC { mark 3 1 roll /BDC pdfmark } bind def
/EMC { mark /EMC pdfmark } bind def
/cairo_store_point { /cairo_point_y exch def /cairo_point_x exch def } def
/Tj { show currentpoint cairo_store_point } bind def
/TJ {
  {
    dup
    type /stringtype eq
    { show } { -0.001 mul 0 cairo_font_matrix dtransform rmoveto } ifelse
  } forall
  currentpoint cairo_store_point
} bind def
/cairo_selectfont { cairo_font_matrix aload pop pop pop 0 0 6 array astore
    cairo_font exch selectfont cairo_point_x cairo_point_y moveto } bind def
/Tf { pop /cairo_font exch def /cairo_font_matrix where
      { pop cairo_selectfont } if } bind def
/Td { matrix translate cairo_font_matrix matrix concatmatrix dup
      /cairo_font_matrix exch def dup 4 get exch 5 get cairo_store_point
      /cairo_font where { pop cairo_selectfont } if } bind def
/Tm { 2 copy 8 2 roll 6 array astore /cairo_font_matrix exch def
      cairo_store_point /cairo_font where { pop cairo_selectfont } if } bind def
/g { setgray } bind def
/rg { setrgbcolor } bind def
/d1 { setcachedevice } bind def
/cairo_flush_ascii85_file { cairo_ascii85_file status { cairo_ascii85_file flushfile } if } def
/cairo_image { image cairo_flush_ascii85_file } def
/cairo_imagemask { imagemask cairo_flush_ascii85_file } def
%%EndProlog
%%BeginSetup
%%EndSetup
%%Page: 1 1
%%BeginPageSetup
%%PageBoundingBox: 75 325 377 506
%%EndPageSetup
q 75 325 302 181 rectclip
1 0 0 -1 0 842 cm q
0 g
0.441657 w
0 J
0 j
[] 0.0 d
4 M q 1 0 0 0.802276 0 0 cm
75.004 614.984 m 175.418 614.984 275.832 614.984 376.246 614.984 c S Q
371.828 493.387 m 370.063 494.805 l 376.246 493.387 l 370.063 491.969 l
 h
371.828 493.387 m f*
0.471101 w
q -1 0 0 -0.802276 0 0 cm
-371.828 -614.984 m -370.063 -616.751 l -376.246 -614.984 l -370.063 -613.216
 l h
-371.828 -614.984 m S Q
0.354331 w
q 1 0 0 1 0 0 cm
97.73 516.875 m 97.73 457.02 97.73 397.168 97.73 337.32 c S Q
97.73 340.863 m 99.148 342.277 l 97.73 337.32 l 96.316 342.277 l h
97.73 340.863 m f*
0.377953 w
q 0 1 -1 0 0 0 cm
340.863 -97.73 m 342.277 -99.148 l 337.32 -97.73 l 342.277 -96.316 l h
340.863 -97.73 m S Q
0.354331 w
q 1 0 0 1 0 0 cm
124.629 421.035 m 127.215 410.715 132.031 400.957 138.645 392.625 c 141.625
 388.867 145.02 385.352 149.133 382.879 c 153.242 380.406 158.145 379.031
 162.887 379.746 c 167.043 380.371 170.859 382.566 173.902 385.465 c 177.098
 388.512 179.484 392.289 181.828 396.035 c 186.125 402.906 190.391 409.805
 194.297 416.906 c 196.469 420.863 198.531 424.879 200.391 428.988 c 202.629
 433.945 204.609 439.105 207.965 443.383 c 210.02 446 212.566 448.242 215.484
 449.84 c 218.402 451.441 221.688 452.391 225.012 452.477 c 231.094 452.633
 236.984 449.91 241.68 446.035 c 246.457 442.094 250.203 436.949 252.664
 431.262 c 255.586 424.512 256.711 417.074 259.863 410.43 c 262.699 404.445
 267.066 399.336 271.605 394.52 c 273.543 392.465 275.543 390.426 277.945
 388.934 c 280.344 387.445 283.203 386.535 286 386.941 c 287.754 387.199
 289.41 387.961 290.859 388.98 c 292.309 390 293.563 391.273 294.711 392.625
 c 300.41 399.316 303.52 407.754 307.211 415.73 c 311.395 424.762 316.426
 433.371 321.605 441.871 c 323.852 445.551 326.125 449.211 328.426 452.855
 c S Q
q 1 0 0 1 0 0 cm
127.863 490.355 m 127.863 492.25 127.863 494.145 127.863 496.039 c S Q
q 1 0 0 1 0 0 cm
328.473 490.617 m 328.473 492.512 328.473 494.406 328.473 496.301 c S Q
q 1 0 0 1 0 0 cm
151.902 490.355 m 151.902 492.25 151.902 494.145 151.902 496.039 c S Q
q 1 0 0 1 0 0 cm
173.684 490.547 m 173.684 492.438 173.684 494.332 173.684 496.227 c S Q
q 1 0 0 1 0 0 cm
194.328 490.547 m 194.328 492.438 194.328 494.332 194.328 496.227 c S Q
q 1 0 0 1 0 0 cm
212.512 490.355 m 212.512 492.25 212.512 494.145 212.512 496.039 c S Q
q 1 0 0 1 0 0 cm
229.559 490.734 m 229.559 492.629 229.559 494.523 229.559 496.418 c S Q
q 1 0 0 1 0 0 cm
246.227 490.355 m 246.227 492.25 246.227 494.145 246.227 496.039 c S Q
q 1 0 0 1 0 0 cm
261.379 490.547 m 261.379 492.438 261.379 494.332 261.379 496.227 c S Q
q 1 0 0 1 0 0 cm
276.906 490.547 m 276.906 492.438 276.906 494.332 276.906 496.227 c S Q
q 1 0 0 1 0 0 cm
290.926 490.355 m 290.926 492.25 290.926 494.145 290.926 496.039 c S Q
q 1 0 0 1 0 0 cm
303.992 490.355 m 303.992 492.25 303.992 494.145 303.992 496.039 c S Q
q 1 0 0 1 0 0 cm
315.168 490.355 m 315.168 492.25 315.168 494.145 315.168 496.039 c S Q
0.0705882 0 0.87451 rg
q 1 0 0 1 0 0 cm
124.629 421.035 m 133.719 407.84 142.809 394.645 151.902 381.449 c 151.902
 381.449 173.684 385.238 173.684 385.238 c 173.684 385.238 194.422 416.961
 194.422 416.961 c 194.422 416.961 212.605 447.93 212.605 447.93 c 212.605
 447.93 229.559 452.098 229.559 452.098 c 229.559 452.098 246.32 441.68 
246.32 441.68 c 246.32 441.68 261.379 407.684 261.379 407.684 c 261.379 
407.684 277.004 389.688 277.004 389.688 c 277.004 389.688 290.926 389.215
 290.926 389.215 c 290.926 389.215 304.184 408.82 304.184 408.82 c 304.184
 408.82 315.168 430.98 315.168 430.98 c 315.168 430.98 328.426 452.855 328.426
 452.855 c S Q
0 g
q 1 0 0 1 0 0 cm
127.895 490.594 m 127.895 492.488 127.895 494.379 127.895 496.277 c S Q
128.27 500.961 m 128.082 500.586 127.801 500.32 127.348 500.32 c 126.191
 500.32 124.957 501.789 124.957 503.242 c 124.957 504.18 125.504 504.836
 126.27 504.836 c 126.473 504.836 126.973 504.789 127.566 504.086 c 127.645
 504.508 128.004 504.836 128.473 504.836 c 128.832 504.836 129.051 504.602
 129.223 504.289 c 129.379 503.93 129.52 503.32 129.52 503.305 c 129.52 
503.195 129.426 503.195 129.395 503.195 c 129.301 503.195 129.285 503.242
 129.254 503.383 c 129.082 504.023 128.91 504.617 128.504 504.617 c 128.223
 504.617 128.207 504.352 128.207 504.164 c 128.207 503.945 128.223 503.852
 128.332 503.414 c 128.441 503.008 128.457 502.898 128.551 502.523 c 128.91
 501.133 l 128.973 500.852 128.973 500.836 128.973 500.789 c 128.973 500.617
 128.863 500.523 128.691 500.523 c 128.441 500.523 128.301 500.742 128.27
 500.961 c h
127.629 503.539 m 127.566 503.727 127.566 503.742 127.426 503.914 c 126.988
 504.461 126.582 504.617 126.301 504.617 c 125.801 504.617 125.66 504.07
 125.66 503.68 c 125.66 503.18 125.973 501.961 126.207 501.492 c 126.52 
500.914 126.957 500.539 127.363 500.539 c 128.004 500.539 128.145 501.352
 128.145 501.414 c 128.145 501.477 128.129 501.539 128.113 501.586 c h
127.629 503.539 m f
328.473 497.801 m 328.473 497.801 328.473 497.691 328.348 497.691 c 328.129
 497.691 327.395 497.77 327.129 497.801 c 327.051 497.801 326.941 497.816
 326.941 497.988 c 326.941 498.113 327.035 498.113 327.191 498.113 c 327.66
 498.113 327.676 498.176 327.676 498.285 c 327.676 498.348 327.598 498.691
 327.551 498.895 c 326.723 502.145 l 326.613 502.645 326.566 502.816 326.566
 503.16 c 326.566 504.098 327.098 504.723 327.832 504.723 c 329.004 504.723
 330.238 503.238 330.238 501.801 c 330.238 500.895 329.707 500.207 328.91
 500.207 c 328.457 500.207 328.035 500.504 327.738 500.801 c h
327.551 501.566 m 327.598 501.348 327.598 501.332 327.691 501.223 c 328.176
 500.582 328.629 500.426 328.895 500.426 c 329.254 500.426 329.52 500.723
 329.52 501.363 c 329.52 501.957 329.191 503.098 329.004 503.473 c 328.676
 504.145 328.223 504.504 327.832 504.504 c 327.488 504.504 327.16 504.238
 327.16 503.504 c 327.16 503.301 327.16 503.113 327.316 502.488 c h
327.551 501.566 m f
316.145 395.047 m 316.113 395.203 316.051 395.438 316.051 395.484 c 316.051
 395.656 316.191 395.75 316.348 395.75 c 316.473 395.75 316.645 395.672 
316.723 395.469 c 316.723 395.453 316.848 394.984 316.91 394.734 c 317.129
 393.844 l 317.176 393.609 317.238 393.391 317.301 393.172 c 317.332 393
 317.41 392.703 317.426 392.672 c 317.566 392.359 318.098 391.453 319.051
 391.453 c 319.504 391.453 319.582 391.828 319.582 392.156 c 319.582 392.766
 319.098 394.047 318.941 394.469 c 318.848 394.703 318.832 394.828 318.832
 394.938 c 318.832 395.406 319.191 395.75 319.66 395.75 c 320.598 395.75
 320.957 394.297 320.957 394.219 c 320.957 394.109 320.879 394.109 320.848
 394.109 c 320.738 394.109 320.738 394.141 320.691 394.297 c 320.488 394.969
 320.16 395.531 319.676 395.531 c 319.504 395.531 319.441 395.438 319.441
 395.203 c 319.441 394.953 319.52 394.719 319.613 394.5 c 319.801 393.969
 320.223 392.875 320.223 392.297 c 320.223 391.641 319.801 391.234 319.082
 391.234 c 318.176 391.234 317.691 391.875 317.52 392.109 c 317.473 391.547
 317.066 391.234 316.598 391.234 c 316.145 391.234 315.957 391.625 315.863
 391.797 c 315.691 392.141 315.566 392.734 315.566 392.766 c 315.566 392.875
 315.66 392.875 315.676 392.875 c 315.785 392.875 315.785 392.859 315.848
 392.641 c 316.02 391.938 316.223 391.453 316.582 391.453 c 316.77 391.453
 316.879 391.578 316.879 391.906 c 316.879 392.125 316.848 392.234 316.723
 392.75 c h
316.145 395.047 m f
330.859 392.375 m 331.016 392.375 331.203 392.375 331.203 392.188 c 331.203
 391.984 331.016 391.984 330.875 391.984 c 324.906 391.984 l 324.766 391.984
 324.578 391.984 324.578 392.188 c 324.578 392.375 324.766 392.375 324.906
 392.375 c h
330.875 394.313 m 331.016 394.313 331.203 394.313 331.203 394.109 c 331.203
 393.922 331.016 393.922 330.859 393.922 c 324.906 393.922 l 324.766 393.922
 324.578 393.922 324.578 394.109 c 324.578 394.313 324.766 394.313 324.906
 394.313 c h
330.875 394.313 m f
337.473 389.266 m 337.473 389.016 337.473 389 337.238 389 c 336.613 389.641
 335.738 389.641 335.426 389.641 c 335.426 389.953 l 335.629 389.953 336.207
 389.953 336.723 389.688 c 336.723 394.859 l 336.723 395.219 336.691 395.328
 335.801 395.328 c 335.488 395.328 l 335.488 395.641 l 335.832 395.609 336.691
 395.609 337.098 395.609 c 337.488 395.609 338.363 395.609 338.707 395.641
 c 338.707 395.328 l 338.395 395.328 l 337.488 395.328 337.473 395.219 337.473
 394.859 c h
337.473 389.266 m f
342.406 392.125 m 343.219 391.859 343.797 391.172 343.797 390.375 c 343.797
 389.563 342.922 389 341.969 389 c 340.969 389 340.203 389.594 340.203 390.359
 c 340.203 390.688 340.422 390.875 340.719 390.875 c 341.016 390.875 341.219
 390.656 341.219 390.359 c 341.219 389.875 340.75 389.875 340.609 389.875
 c 340.906 389.375 341.563 389.25 341.922 389.25 c 342.344 389.25 342.891
 389.469 342.891 390.359 c 342.891 390.484 342.859 391.063 342.609 391.5
 c 342.313 391.984 341.969 392.016 341.719 392.016 c 341.641 392.031 341.406
 392.047 341.328 392.047 c 341.25 392.063 341.188 392.078 341.188 392.172
 c 341.188 392.281 341.25 392.281 341.422 392.281 c 341.859 392.281 l 342.672
 392.281 343.047 392.953 343.047 393.938 c 343.047 395.297 342.359 395.578
 341.922 395.578 c 341.484 395.578 340.734 395.406 340.391 394.828 c 340.734
 394.875 341.047 394.656 341.047 394.281 c 341.047 393.922 340.781 393.719
 340.5 393.719 c 340.25 393.719 339.938 393.859 339.938 394.297 c 339.938
 395.203 340.859 395.859 341.953 395.859 c 343.172 395.859 344.078 394.953
 344.078 393.938 c 344.078 393.125 343.438 392.344 342.406 392.125 c h
342.406 392.125 m f
Q Q
showpage
%%Trailer
end restore
%%EOF
