<?xml version="1.0" encoding="UTF-8" standalone="no"?>
<!-- Created with Inkscape (http://www.inkscape.org/) -->

<svg
   xmlns:rendltx="http://NOTSET"
   xmlns:dc="http://purl.org/dc/elements/1.1/"
   xmlns:cc="http://creativecommons.org/ns#"
   xmlns:rdf="http://www.w3.org/1999/02/22-rdf-syntax-ns#"
   xmlns:svg="http://www.w3.org/2000/svg"
   xmlns="http://www.w3.org/2000/svg"
   xmlns:xlink="http://www.w3.org/1999/xlink"
   xmlns:sodipodi="http://sodipodi.sourceforge.net/DTD/sodipodi-0.dtd"
   xmlns:inkscape="http://www.inkscape.org/namespaces/inkscape"
   width="210mm"
   height="297mm"
   viewBox="0 0 210 297"
   version="1.1"
   id="svg8"
   inkscape:version="0.92.4 (5da689c313, 2019-01-14)"
   sodipodi:docname="fig2.svg">
  <defs
     id="defs2">
    <marker
       inkscape:stockid="Arrow1Lend"
       orient="auto"
       refY="0.0"
       refX="0.0"
       id="Arrow1Lend"
       style="overflow:visible;"
       inkscape:isstock="true">
      <path
         id="path822"
         d="M 0.0,0.0 L 5.0,-5.0 L -12.5,0.0 L 5.0,5.0 L 0.0,0.0 z "
         style="fill-rule:evenodd;stroke:#000000;stroke-width:1pt;stroke-opacity:1;fill:#000000;fill-opacity:1"
         transform="scale(0.8) rotate(180) translate(12.5,0)" />
    </marker>
    <marker
       inkscape:isstock="true"
       style="overflow:visible;"
       id="marker3460"
       refX="0.0"
       refY="0.0"
       orient="auto"
       inkscape:stockid="Arrow1Lend">
      <path
         transform="scale(0.8) rotate(180) translate(12.5,0)"
         style="fill-rule:evenodd;stroke:#000000;stroke-width:1pt;stroke-opacity:1;fill:#000000;fill-opacity:1"
         d="M 0.0,0.0 L 5.0,-5.0 L -12.5,0.0 L 5.0,5.0 L 0.0,0.0 z "
         id="path3458" />
    </marker>
    <marker
       inkscape:stockid="Arrow1Lend"
       orient="auto"
       refY="0.0"
       refX="0.0"
       id="marker1463"
       style="overflow:visible;"
       inkscape:isstock="true">
      <path
         id="path1461"
         d="M 0.0,0.0 L 5.0,-5.0 L -12.5,0.0 L 5.0,5.0 L 0.0,0.0 z "
         style="fill-rule:evenodd;stroke:#000000;stroke-width:1pt;stroke-opacity:1;fill:#000000;fill-opacity:1"
         transform="scale(0.8) rotate(180) translate(12.5,0)" />
    </marker>
    <marker
       inkscape:stockid="Arrow1Lend"
       orient="auto"
       refY="0.0"
       refX="0.0"
       id="marker1227"
       style="overflow:visible;"
       inkscape:isstock="true">
      <path
         id="path1225"
         d="M 0.0,0.0 L 5.0,-5.0 L -12.5,0.0 L 5.0,5.0 L 0.0,0.0 z "
         style="fill-rule:evenodd;stroke:#000000;stroke-width:1pt;stroke-opacity:1;fill:#000000;fill-opacity:1"
         transform="scale(0.8) rotate(180) translate(12.5,0)" />
    </marker>
    <marker
       inkscape:stockid="Arrow1Lend"
       orient="auto"
       refY="0.0"
       refX="0.0"
       id="marker1181"
       style="overflow:visible;"
       inkscape:isstock="true"
       inkscape:collect="always">
      <path
         id="path1179"
         d="M 0.0,0.0 L 5.0,-5.0 L -12.5,0.0 L 5.0,5.0 L 0.0,0.0 z "
         style="fill-rule:evenodd;stroke:#000000;stroke-width:1pt;stroke-opacity:1;fill:#000000;fill-opacity:1"
         transform="scale(0.8) rotate(180) translate(12.5,0)" />
    </marker>
  </defs>
  <sodipodi:namedview
     id="base"
     pagecolor="#ffffff"
     bordercolor="#666666"
     borderopacity="1.0"
     inkscape:pageopacity="0.0"
     inkscape:pageshadow="2"
     inkscape:zoom="1.4"
     inkscape:cx="466.24838"
     inkscape:cy="640.12785"
     inkscape:document-units="mm"
     inkscape:current-layer="g2509"
     showgrid="false"
     inkscape:snap-intersection-paths="true"
     inkscape:window-width="1486"
     inkscape:window-height="1018"
     inkscape:window-x="425"
     inkscape:window-y="0"
     inkscape:window-maximized="0" />
  <metadata
     id="metadata5">
    <rdf:RDF>
      <cc:Work
         rdf:about="">
        <dc:format>image/svg+xml</dc:format>
        <dc:type
           rdf:resource="http://purl.org/dc/dcmitype/StillImage" />
        <dc:title></dc:title>
      </cc:Work>
    </rdf:RDF>
  </metadata>
  <g
     inkscape:label="Layer 1"
     inkscape:groupmode="layer"
     id="layer1">
    <g
       id="g1292">
      <g
         id="g1283" />
    </g>
    <g
       id="g2203"
       transform="matrix(2.0754315,0,0,2.6258015,-54.586492,-309.02526)" />
  </g>
  <g
     inkscape:label="Rendered Latex"
     inkscape:groupmode="layer"
     id="ltx-render-layer"
     rendltx:preamble=""
     rendltx:scale="1.0"
     rendltx:depth="0"
     rendltx:fontsize="10"
     rendltx:newline="False"
     rendltx:math="False">
    <g
       id="g3903">
      <g
         id="g2509"
         style=""
         transform="matrix(2.0754315,0,0,2.6258015,-54.586492,-309.02526)">
        <path
           sodipodi:nodetypes="cc"
           inkscape:connector-curvature="0"
           id="path1175"
           d="m 61.471992,188.41881 0,-31.73531"
           style="opacity:1;vector-effect:none;fill:none;fill-opacity:1;stroke:#000000;stroke-width:0.125;stroke-linecap:butt;stroke-linejoin:miter;stroke-miterlimit:4;stroke-dasharray:none;stroke-dashoffset:0;stroke-opacity:1;marker-end:url(#marker1181)" />
        <path
           inkscape:connector-curvature="0"
           id="path1177"
           d="m 57.701743,176.99598 h 3.780019 52.062628"
           style="opacity:1;vector-effect:none;fill:none;fill-opacity:1;stroke:#000000;stroke-width:0.09813531;stroke-linecap:butt;stroke-linejoin:miter;stroke-miterlimit:4;stroke-dasharray:none;stroke-dashoffset:0;stroke-opacity:1;marker-end:url(#marker1227)"
           sodipodi:nodetypes="ccc" />
        <path
           sodipodi:nodetypes="cc"
           inkscape:connector-curvature="0"
           id="path1312"
           d="m 74.701167,176.34142 v 1.44861"
           style="opacity:1;vector-effect:none;fill:none;fill-opacity:1;stroke:#000000;stroke-width:0.07667749;stroke-linecap:butt;stroke-linejoin:miter;stroke-miterlimit:4;stroke-dasharray:none;stroke-dashoffset:0;stroke-opacity:1" />
        <path
           sodipodi:nodetypes="cc"
           inkscape:connector-curvature="0"
           id="path1312-1"
           d="m 88.460175,176.34143 v 1.44861"
           style="opacity:1;vector-effect:none;fill:none;fill-opacity:1;stroke:#000000;stroke-width:0.07667749;stroke-linecap:butt;stroke-linejoin:miter;stroke-miterlimit:4;stroke-dasharray:none;stroke-dashoffset:0;stroke-opacity:1" />
        <path
           sodipodi:nodetypes="cc"
           inkscape:connector-curvature="0"
           id="path2675"
           d="m 74.701167,187.18008 21.637381,0"
           style="opacity:1;vector-effect:none;fill:none;fill-opacity:1;stroke:#000000;stroke-width:0.05354573;stroke-linecap:butt;stroke-linejoin:miter;stroke-miterlimit:4;stroke-dasharray:none;stroke-dashoffset:0;stroke-opacity:1" />
      </g>
      <path
         sodipodi:nodetypes="cc"
         inkscape:connector-curvature="0"
         id="path2607"
         d="m 61.471992,166.81185 13.229175,0"
         style="opacity:1;vector-effect:none;fill:none;fill-opacity:1;stroke:#000000;stroke-width:0.05354573;stroke-linecap:butt;stroke-linejoin:miter;stroke-miterlimit:4;stroke-dasharray:none;stroke-dashoffset:0;stroke-opacity:1"
         transform="matrix(2.0754315,0,0,2.6258015,-54.586492,-309.02526)" />
      <path
         sodipodi:nodetypes="cccc"
         inkscape:connector-curvature="0"
         id="rect2685"
         d="m 73.91687,166.09863 h 0.788755 v 1.47591 H 73.91687"
         style="opacity:1;vector-effect:none;fill:none;fill-opacity:1;fill-rule:evenodd;stroke:#000000;stroke-width:0.05354573;stroke-linecap:butt;stroke-linejoin:bevel;stroke-miterlimit:4;stroke-dasharray:none;stroke-dashoffset:0;stroke-opacity:1"
         transform="matrix(2.0754315,0,0,2.6258015,-54.586492,-309.02526)" />
      <path
         sodipodi:nodetypes="cccc"
         inkscape:connector-curvature="0"
         id="rect2685-8"
         d="m 73.88423,186.44241 h 0.788755 v 1.47591 H 73.88423"
         style="opacity:1;vector-effect:none;fill:none;fill-opacity:1;fill-rule:evenodd;stroke:#000000;stroke-width:0.05354573;stroke-linecap:butt;stroke-linejoin:bevel;stroke-miterlimit:4;stroke-dasharray:none;stroke-dashoffset:0;stroke-opacity:1"
         transform="matrix(2.0754315,0,0,2.6258015,-54.586492,-309.02526)" />
      <path
         sodipodi:nodetypes="cc"
         inkscape:connector-curvature="0"
         id="path2705"
         d="m 61.471992,166.81184 h 5.790137 l 14.878054,20.36823 9.40534,0"
         style="opacity:1;vector-effect:none;fill:none;fill-opacity:1;stroke:#e20000;stroke-width:0.18205549;stroke-linecap:butt;stroke-linejoin:miter;stroke-miterlimit:4;stroke-dasharray:none;stroke-dashoffset:0;stroke-opacity:1"
         transform="matrix(2.0754315,0,0,2.6258015,-54.586492,-309.02526)" />
      <path
         sodipodi:nodetypes="cc"
         inkscape:connector-curvature="0"
         id="path2707"
         d="m 82.140183,177.79003 0,-1.44861"
         style="opacity:1;vector-effect:none;fill:none;fill-opacity:1;stroke:#000000;stroke-width:0.07667749;stroke-linecap:butt;stroke-linejoin:miter;stroke-miterlimit:4;stroke-dasharray:none;stroke-dashoffset:0;stroke-opacity:1"
         transform="matrix(2.0754315,0,0,2.6258015,-54.586492,-309.02526)" />
      <path
         sodipodi:nodetypes="cc"
         inkscape:connector-curvature="0"
         id="path2709"
         d="m 67.262136,176.34142 0,1.44861"
         style="opacity:1;vector-effect:none;fill:none;fill-opacity:1;stroke:#000000;stroke-width:0.07667749;stroke-linecap:butt;stroke-linejoin:miter;stroke-miterlimit:4;stroke-dasharray:none;stroke-dashoffset:0;stroke-opacity:1"
         transform="matrix(2.0754315,0,0,2.6258015,-54.586492,-309.02526)" />
      <path
         inkscape:connector-curvature="0"
         id="path2715"
         d="m 67.262136,166.81184 v 10.18413"
         style="opacity:1;vector-effect:none;fill:none;fill-opacity:1;stroke:#000000;stroke-width:0.05354573;stroke-linecap:butt;stroke-linejoin:miter;stroke-miterlimit:4;stroke-dasharray:0.05354573, 0.32127435999999998;stroke-dashoffset:0;stroke-opacity:1"
         transform="matrix(2.0754315,0,0,2.6258015,-54.586492,-309.02526)" />
      <path
         inkscape:connector-curvature="0"
         id="path2717"
         d="m 82.140183,176.99597 v 10.18409"
         style="opacity:1;vector-effect:none;fill:none;fill-opacity:1;stroke:#000000;stroke-width:0.05354573;stroke-linecap:butt;stroke-linejoin:miter;stroke-miterlimit:4;stroke-dasharray:0.05354573, 0.42836582000000001;stroke-dashoffset:0;stroke-opacity:1"
         transform="matrix(2.0754315,0,0,2.6258015,-54.586492,-309.02526)" />
      <g
         id="g3719">
        <g
           transform="matrix(0.49904985,0,0,0.49904985,86.754166,173.36691)"
           id="lx-text2721">
          <defs
             id="defs2790">
            <g
               id="g2788">
              <symbol
                 style="overflow:visible"
                 overflow="visible"
                 id="lx-text2721-glyph0-0">
                <path
                   inkscape:connector-curvature="0"
                   style="stroke:none"
                   d=""
                   id="path2779" />
              </symbol>
              <symbol
                 style="overflow:visible"
                 overflow="visible"
                 id="lx-text2721-glyph0-1">
                <path
                   inkscape:connector-curvature="0"
                   style="stroke:none"
                   d="m 2.328125,-4.4375 c 0,-0.1875 0,-0.1875 -0.203125,-0.1875 -0.453125,0.4375 -1.078125,0.4375 -1.359375,0.4375 v 0.25 c 0.15625,0 0.625,0 1,-0.1875 v 3.546875 c 0,0.234375 0,0.328125 -0.6875,0.328125 H 0.8125 V 0 c 0.125,0 0.984375,-0.03125 1.234375,-0.03125 0.21875,0 1.09375,0.03125 1.25,0.03125 V -0.25 H 3.03125 c -0.703125,0 -0.703125,-0.09375 -0.703125,-0.328125 z m 0,0"
                   id="path2782" />
              </symbol>
              <symbol
                 style="overflow:visible"
                 overflow="visible"
                 id="lx-text2721-glyph0-2">
                <path
                   inkscape:connector-curvature="0"
                   style="stroke:none"
                   d="M 3.515625,-1.265625 H 3.28125 c -0.015625,0.15625 -0.09375,0.5625 -0.1875,0.625 C 3.046875,-0.59375 2.515625,-0.59375 2.40625,-0.59375 H 1.125 c 0.734375,-0.640625 0.984375,-0.84375 1.390625,-1.171875 0.515625,-0.40625 1,-0.84375 1,-1.5 0,-0.84375 -0.734375,-1.359375 -1.625,-1.359375 -0.859375,0 -1.453125,0.609375 -1.453125,1.25 0,0.34375 0.296875,0.390625 0.375,0.390625 0.15625,0 0.359375,-0.125 0.359375,-0.375 0,-0.125 -0.046875,-0.375 -0.40625,-0.375 C 0.984375,-4.21875 1.453125,-4.375 1.78125,-4.375 c 0.703125,0 1.0625,0.546875 1.0625,1.109375 0,0.609375 -0.4375,1.078125 -0.65625,1.328125 L 0.515625,-0.265625 C 0.4375,-0.203125 0.4375,-0.1875 0.4375,0 h 2.875 z m 0,0"
                   id="path2785" />
              </symbol>
            </g>
          </defs>
          <g
             transform="translate(25.619173,-23.792349)"
             id="lx-text2721-surface1">
            <g
               style="fill:#000000;fill-opacity:1"
               id="g2794">
              <use
                 height="100%"
                 width="100%"
                 xlink:href="#lx-text2721-glyph0-1"
                 x="0"
                 y="0"
                 id="use2792" />
            </g>
            <path
               inkscape:connector-curvature="0"
               style="fill:none;stroke:#000000;stroke-width:0.398;stroke-linecap:butt;stroke-linejoin:miter;stroke-miterlimit:10;stroke-opacity:1"
               d="M -9.375e-4,-0.00178125 H 3.971719"
               transform="matrix(1,0,0,-1,0,1.432)"
               id="path2796" />
            <g
               style="fill:#000000;fill-opacity:1"
               id="g2800">
              <use
                 height="100%"
                 width="100%"
                 xlink:href="#lx-text2721-glyph0-2"
                 x="0"
                 y="7.3579998"
                 id="use2798" />
            </g>
          </g>
        </g>
        <g
           transform="matrix(0.49904985,0,0,0.49904985,128.03291,162.24195)"
           id="lx-text2725">
          <defs
             id="defs2812">
            <g
               id="g2810">
              <symbol
                 style="overflow:visible"
                 overflow="visible"
                 id="lx-text2725-glyph0-0">
                <path
                   inkscape:connector-curvature="0"
                   style="stroke:none"
                   d=""
                   id="path2804" />
              </symbol>
              <symbol
                 style="overflow:visible"
                 overflow="visible"
                 id="lx-text2725-glyph0-1">
                <path
                   inkscape:connector-curvature="0"
                   style="stroke:none"
                   d="m 2.9375,-6.375 c 0,-0.25 0,-0.265625 -0.234375,-0.265625 C 2.078125,-6 1.203125,-6 0.890625,-6 v 0.3125 c 0.203125,0 0.78125,0 1.296875,-0.265625 v 5.171875 c 0,0.359375 -0.03125,0.46875 -0.921875,0.46875 h -0.3125 V 0 c 0.34375,-0.03125 1.203125,-0.03125 1.609375,-0.03125 0.390625,0 1.265625,0 1.609375,0.03125 v -0.3125 h -0.3125 c -0.90625,0 -0.921875,-0.109375 -0.921875,-0.46875 z m 0,0"
                   id="path2807" />
              </symbol>
            </g>
          </defs>
          <g
             id="lx-text2725-surface1">
            <g
               style="fill:#000000;fill-opacity:1"
               id="g2816">
              <use
                 height="100%"
                 width="100%"
                 xlink:href="#lx-text2725-glyph0-1"
                 x="0"
                 y="0"
                 id="use2814" />
            </g>
          </g>
        </g>
        <g
           transform="matrix(0.49904985,0,0,0.49904985,94.526675,184.19597)"
           id="lx-text2729">
          <defs
             id="defs2828">
            <g
               id="g2826">
              <symbol
                 style="overflow:visible"
                 overflow="visible"
                 id="lx-text2729-glyph0-0">
                <path
                   inkscape:connector-curvature="0"
                   style="stroke:none"
                   d=""
                   id="path2820" />
              </symbol>
              <symbol
                 style="overflow:visible"
                 overflow="visible"
                 id="lx-text2729-glyph0-1">
                <path
                   inkscape:connector-curvature="0"
                   style="stroke:none"
                   d="m 4.578125,-3.1875 c 0,-0.796875 -0.046875,-1.59375 -0.390625,-2.328125 -0.453125,-0.96875 -1.28125,-1.125 -1.6875,-1.125 -0.609375,0 -1.328125,0.265625 -1.75,1.1875 -0.3125,0.6875 -0.359375,1.46875 -0.359375,2.265625 0,0.75 0.03125,1.640625 0.453125,2.40625 0.421875,0.796875 1.15625,1 1.640625,1 0.53125,0 1.296875,-0.203125 1.734375,-1.15625 0.3125,-0.6875 0.359375,-1.46875 0.359375,-2.25 z M 2.484375,0 C 2.09375,0 1.5,-0.25 1.328125,-1.203125 1.21875,-1.796875 1.21875,-2.71875 1.21875,-3.3125 c 0,-0.640625 0,-1.296875 0.078125,-1.828125 0.1875,-1.1875 0.9375,-1.28125 1.1875,-1.28125 0.328125,0 0.984375,0.1875 1.171875,1.171875 0.109375,0.5625 0.109375,1.3125 0.109375,1.9375 0,0.75 0,1.421875 -0.109375,2.0625 C 3.5,-0.296875 2.9375,0 2.484375,0 Z m 0,0"
                   id="path2823" />
              </symbol>
            </g>
          </defs>
          <g
             transform="translate(-49.003445,-48.601777)"
             id="lx-text2729-surface1">
            <g
               style="fill:#000000;fill-opacity:1"
               id="g2832">
              <use
                 height="100%"
                 width="100%"
                 xlink:href="#lx-text2729-glyph0-1"
                 x="0"
                 y="0"
                 id="use2830" />
            </g>
          </g>
        </g>
        <g
           transform="matrix(0.3550063,0,0,0.3550063,99.156206,162.01886)"
           id="lx-text2733">
          <defs
             id="defs2859">
            <g
               id="g2857">
              <symbol
                 style="overflow:visible"
                 overflow="visible"
                 id="lx-text2733-glyph0-0">
                <path
                   inkscape:connector-curvature="0"
                   style="stroke:none"
                   d=""
                   id="path2836" />
              </symbol>
              <symbol
                 style="overflow:visible"
                 overflow="visible"
                 id="lx-text2733-glyph0-1">
                <path
                   inkscape:connector-curvature="0"
                   style="stroke:none"
                   d="m 2.328125,-4.4375 c 0,-0.1875 0,-0.1875 -0.203125,-0.1875 -0.453125,0.4375 -1.078125,0.4375 -1.359375,0.4375 v 0.25 c 0.15625,0 0.625,0 1,-0.1875 v 3.546875 c 0,0.234375 0,0.328125 -0.6875,0.328125 H 0.8125 V 0 c 0.125,0 0.984375,-0.03125 1.234375,-0.03125 0.21875,0 1.09375,0.03125 1.25,0.03125 V -0.25 H 3.03125 c -0.703125,0 -0.703125,-0.09375 -0.703125,-0.328125 z m 0,0"
                   id="path2839" />
              </symbol>
              <symbol
                 style="overflow:visible"
                 overflow="visible"
                 id="lx-text2733-glyph0-2">
                <path
                   inkscape:connector-curvature="0"
                   style="stroke:none"
                   d="M 3.515625,-1.265625 H 3.28125 c -0.015625,0.15625 -0.09375,0.5625 -0.1875,0.625 C 3.046875,-0.59375 2.515625,-0.59375 2.40625,-0.59375 H 1.125 c 0.734375,-0.640625 0.984375,-0.84375 1.390625,-1.171875 0.515625,-0.40625 1,-0.84375 1,-1.5 0,-0.84375 -0.734375,-1.359375 -1.625,-1.359375 -0.859375,0 -1.453125,0.609375 -1.453125,1.25 0,0.34375 0.296875,0.390625 0.375,0.390625 0.15625,0 0.359375,-0.125 0.359375,-0.375 0,-0.125 -0.046875,-0.375 -0.40625,-0.375 C 0.984375,-4.21875 1.453125,-4.375 1.78125,-4.375 c 0.703125,0 1.0625,0.546875 1.0625,1.109375 0,0.609375 -0.4375,1.078125 -0.65625,1.328125 L 0.515625,-0.265625 C 0.4375,-0.203125 0.4375,-0.1875 0.4375,0 h 2.875 z m 0,0"
                   id="path2842" />
              </symbol>
              <symbol
                 style="overflow:visible"
                 overflow="visible"
                 id="lx-text2733-glyph1-0">
                <path
                   inkscape:connector-curvature="0"
                   style="stroke:none"
                   d=""
                   id="path2845" />
              </symbol>
              <symbol
                 style="overflow:visible"
                 overflow="visible"
                 id="lx-text2733-glyph1-1">
                <path
                   inkscape:connector-curvature="0"
                   style="stroke:none"
                   d="m 6.5625,-2.296875 c 0.171875,0 0.359375,0 0.359375,-0.203125 0,-0.1875 -0.1875,-0.1875 -0.359375,-0.1875 H 1.171875 c -0.171875,0 -0.34375,0 -0.34375,0.1875 0,0.203125 0.171875,0.203125 0.34375,0.203125 z m 0,0"
                   id="path2848" />
              </symbol>
              <symbol
                 style="overflow:visible"
                 overflow="visible"
                 id="lx-text2733-glyph2-0">
                <path
                   inkscape:connector-curvature="0"
                   style="stroke:none"
                   d=""
                   id="path2851" />
              </symbol>
              <symbol
                 style="overflow:visible"
                 overflow="visible"
                 id="lx-text2733-glyph2-1">
                <path
                   inkscape:connector-curvature="0"
                   style="stroke:none"
                   d="m 0.84375,-0.4375 c -0.015625,0.09375 -0.0625,0.265625 -0.0625,0.28125 0,0.15625 0.125,0.21875 0.234375,0.21875 0.125,0 0.234375,-0.078125 0.28125,-0.140625 0.03125,-0.0625 0.078125,-0.296875 0.125,-0.4375 0.03125,-0.125 0.109375,-0.453125 0.140625,-0.625 0.046875,-0.15625 0.09375,-0.3125 0.125,-0.46875 0.078125,-0.28125 0.09375,-0.34375 0.296875,-0.625 C 2.171875,-2.515625 2.5,-2.875 3.03125,-2.875 c 0.390625,0 0.40625,0.359375 0.40625,0.484375 0,0.421875 -0.296875,1.1875 -0.40625,1.484375 -0.078125,0.203125 -0.109375,0.265625 -0.109375,0.375 0,0.375 0.296875,0.59375 0.65625,0.59375 0.703125,0 1,-0.953125 1,-1.0625 0,-0.09375 -0.078125,-0.09375 -0.109375,-0.09375 -0.09375,0 -0.09375,0.046875 -0.125,0.125 C 4.1875,-0.40625 3.875,-0.125 3.609375,-0.125 c -0.15625,0 -0.1875,-0.09375 -0.1875,-0.25 0,-0.15625 0.046875,-0.25 0.171875,-0.5625 0.078125,-0.21875 0.359375,-0.953125 0.359375,-1.34375 0,-0.671875 -0.53125,-0.796875 -0.90625,-0.796875 -0.578125,0 -0.96875,0.359375 -1.171875,0.640625 -0.046875,-0.484375 -0.453125,-0.640625 -0.75,-0.640625 -0.296875,0 -0.453125,0.21875 -0.546875,0.375 -0.15625,0.265625 -0.25,0.65625 -0.25,0.703125 0,0.078125 0.09375,0.078125 0.125,0.078125 0.09375,0 0.09375,-0.015625 0.140625,-0.203125 0.109375,-0.40625 0.25,-0.75 0.515625,-0.75 0.1875,0 0.234375,0.15625 0.234375,0.34375 0,0.125 -0.0625,0.390625 -0.125,0.578125 -0.046875,0.1875 -0.109375,0.46875 -0.140625,0.625 z m 0,0"
                   id="path2854" />
              </symbol>
            </g>
          </defs>
          <g
             transform="translate(-50.877893,-6.5605705)"
             id="lx-text2733-surface1">
            <g
               style="fill:#000000;fill-opacity:1"
               id="g2863">
              <use
                 height="100%"
                 width="100%"
                 xlink:href="#lx-text2733-glyph0-1"
                 x="0"
                 y="0"
                 id="use2861" />
            </g>
            <path
               inkscape:connector-curvature="0"
               style="fill:none;stroke:#000000;stroke-width:0.398;stroke-linecap:butt;stroke-linejoin:miter;stroke-miterlimit:10;stroke-opacity:1"
               d="M -9.375e-4,-0.00178125 H 3.971719"
               transform="matrix(1,0,0,-1,0,1.432)"
               id="path2865" />
            <g
               style="fill:#000000;fill-opacity:1"
               id="g2869">
              <use
                 height="100%"
                 width="100%"
                 xlink:href="#lx-text2733-glyph0-2"
                 x="0"
                 y="7.3579998"
                 id="use2867" />
            </g>
            <g
               style="fill:#000000;fill-opacity:1"
               id="g2873">
              <use
                 height="100%"
                 width="100%"
                 xlink:href="#lx-text2733-glyph1-1"
                 x="7.3800001"
                 y="3.9219999"
                 id="use2871" />
            </g>
            <g
               style="fill:#000000;fill-opacity:1"
               id="g2877">
              <use
                 height="100%"
                 width="100%"
                 xlink:href="#lx-text2733-glyph0-1"
                 x="19.014999"
                 y="0"
                 id="use2875" />
            </g>
            <path
               inkscape:connector-curvature="0"
               style="fill:none;stroke:#000000;stroke-width:0.398;stroke-linecap:butt;stroke-linejoin:miter;stroke-miterlimit:10;stroke-opacity:1"
               d="M 1.25e-4,-0.00178125 H 4.925906"
               transform="matrix(1,0,0,-1,18.538,1.432)"
               id="path2879" />
            <g
               style="fill:#000000;fill-opacity:1"
               id="g2883">
              <use
                 height="100%"
                 width="100%"
                 xlink:href="#lx-text2733-glyph2-1"
                 x="18.538"
                 y="7.3579998"
                 id="use2881" />
            </g>
          </g>
        </g>
        <g
           transform="matrix(0.3550063,0,0,0.3550063,112.10358,160.33054)"
           id="lx-text2737">
          <defs
             id="defs2910">
            <g
               id="g2908">
              <symbol
                 style="overflow:visible"
                 overflow="visible"
                 id="lx-text2737-glyph0-0">
                <path
                   inkscape:connector-curvature="0"
                   style="stroke:none"
                   d=""
                   id="path2887" />
              </symbol>
              <symbol
                 style="overflow:visible"
                 overflow="visible"
                 id="lx-text2737-glyph0-1">
                <path
                   inkscape:connector-curvature="0"
                   style="stroke:none"
                   d="m 2.328125,-4.4375 c 0,-0.1875 0,-0.1875 -0.203125,-0.1875 -0.453125,0.4375 -1.078125,0.4375 -1.359375,0.4375 v 0.25 c 0.15625,0 0.625,0 1,-0.1875 v 3.546875 c 0,0.234375 0,0.328125 -0.6875,0.328125 H 0.8125 V 0 c 0.125,0 0.984375,-0.03125 1.234375,-0.03125 0.21875,0 1.09375,0.03125 1.25,0.03125 V -0.25 H 3.03125 c -0.703125,0 -0.703125,-0.09375 -0.703125,-0.328125 z m 0,0"
                   id="path2890" />
              </symbol>
              <symbol
                 style="overflow:visible"
                 overflow="visible"
                 id="lx-text2737-glyph0-2">
                <path
                   inkscape:connector-curvature="0"
                   style="stroke:none"
                   d="M 3.515625,-1.265625 H 3.28125 c -0.015625,0.15625 -0.09375,0.5625 -0.1875,0.625 C 3.046875,-0.59375 2.515625,-0.59375 2.40625,-0.59375 H 1.125 c 0.734375,-0.640625 0.984375,-0.84375 1.390625,-1.171875 0.515625,-0.40625 1,-0.84375 1,-1.5 0,-0.84375 -0.734375,-1.359375 -1.625,-1.359375 -0.859375,0 -1.453125,0.609375 -1.453125,1.25 0,0.34375 0.296875,0.390625 0.375,0.390625 0.15625,0 0.359375,-0.125 0.359375,-0.375 0,-0.125 -0.046875,-0.375 -0.40625,-0.375 C 0.984375,-4.21875 1.453125,-4.375 1.78125,-4.375 c 0.703125,0 1.0625,0.546875 1.0625,1.109375 0,0.609375 -0.4375,1.078125 -0.65625,1.328125 L 0.515625,-0.265625 C 0.4375,-0.203125 0.4375,-0.1875 0.4375,0 h 2.875 z m 0,0"
                   id="path2893" />
              </symbol>
              <symbol
                 style="overflow:visible"
                 overflow="visible"
                 id="lx-text2737-glyph1-0">
                <path
                   inkscape:connector-curvature="0"
                   style="stroke:none"
                   d=""
                   id="path2896" />
              </symbol>
              <symbol
                 style="overflow:visible"
                 overflow="visible"
                 id="lx-text2737-glyph1-1">
                <path
                   inkscape:connector-curvature="0"
                   style="stroke:none"
                   d="m 4.078125,-2.296875 h 2.78125 C 7,-2.296875 7.1875,-2.296875 7.1875,-2.5 7.1875,-2.6875 7,-2.6875 6.859375,-2.6875 h -2.78125 v -2.796875 c 0,-0.140625 0,-0.328125 -0.203125,-0.328125 -0.203125,0 -0.203125,0.1875 -0.203125,0.328125 V -2.6875 h -2.78125 c -0.140625,0 -0.328125,0 -0.328125,0.1875 0,0.203125 0.1875,0.203125 0.328125,0.203125 h 2.78125 V 0.5 c 0,0.140625 0,0.328125 0.203125,0.328125 0.203125,0 0.203125,-0.1875 0.203125,-0.328125 z m 0,0"
                   id="path2899" />
              </symbol>
              <symbol
                 style="overflow:visible"
                 overflow="visible"
                 id="lx-text2737-glyph2-0">
                <path
                   inkscape:connector-curvature="0"
                   style="stroke:none"
                   d=""
                   id="path2902" />
              </symbol>
              <symbol
                 style="overflow:visible"
                 overflow="visible"
                 id="lx-text2737-glyph2-1">
                <path
                   inkscape:connector-curvature="0"
                   style="stroke:none"
                   d="m 0.84375,-0.4375 c -0.015625,0.09375 -0.0625,0.265625 -0.0625,0.28125 0,0.15625 0.125,0.21875 0.234375,0.21875 0.125,0 0.234375,-0.078125 0.28125,-0.140625 0.03125,-0.0625 0.078125,-0.296875 0.125,-0.4375 0.03125,-0.125 0.109375,-0.453125 0.140625,-0.625 0.046875,-0.15625 0.09375,-0.3125 0.125,-0.46875 0.078125,-0.28125 0.09375,-0.34375 0.296875,-0.625 C 2.171875,-2.515625 2.5,-2.875 3.03125,-2.875 c 0.390625,0 0.40625,0.359375 0.40625,0.484375 0,0.421875 -0.296875,1.1875 -0.40625,1.484375 -0.078125,0.203125 -0.109375,0.265625 -0.109375,0.375 0,0.375 0.296875,0.59375 0.65625,0.59375 0.703125,0 1,-0.953125 1,-1.0625 0,-0.09375 -0.078125,-0.09375 -0.109375,-0.09375 -0.09375,0 -0.09375,0.046875 -0.125,0.125 C 4.1875,-0.40625 3.875,-0.125 3.609375,-0.125 c -0.15625,0 -0.1875,-0.09375 -0.1875,-0.25 0,-0.15625 0.046875,-0.25 0.171875,-0.5625 0.078125,-0.21875 0.359375,-0.953125 0.359375,-1.34375 0,-0.671875 -0.53125,-0.796875 -0.90625,-0.796875 -0.578125,0 -0.96875,0.359375 -1.171875,0.640625 -0.046875,-0.484375 -0.453125,-0.640625 -0.75,-0.640625 -0.296875,0 -0.453125,0.21875 -0.546875,0.375 -0.15625,0.265625 -0.25,0.65625 -0.25,0.703125 0,0.078125 0.09375,0.078125 0.125,0.078125 0.09375,0 0.09375,-0.015625 0.140625,-0.203125 0.109375,-0.40625 0.25,-0.75 0.515625,-0.75 0.1875,0 0.234375,0.15625 0.234375,0.34375 0,0.125 -0.0625,0.390625 -0.125,0.578125 -0.046875,0.1875 -0.109375,0.46875 -0.140625,0.625 z m 0,0"
                   id="path2905" />
              </symbol>
            </g>
          </defs>
          <g
             id="lx-text2737-surface1">
            <g
               style="fill:#000000;fill-opacity:1"
               id="g2914">
              <use
                 height="100%"
                 width="100%"
                 xlink:href="#lx-text2737-glyph0-1"
                 x="0"
                 y="0"
                 id="use2912" />
            </g>
            <path
               inkscape:connector-curvature="0"
               style="fill:none;stroke:#000000;stroke-width:0.398;stroke-linecap:butt;stroke-linejoin:miter;stroke-miterlimit:10;stroke-opacity:1"
               d="M -9.375e-4,-0.00178125 H 3.971719"
               transform="matrix(1,0,0,-1,0,1.432)"
               id="path2916" />
            <g
               style="fill:#000000;fill-opacity:1"
               id="g2920">
              <use
                 height="100%"
                 width="100%"
                 xlink:href="#lx-text2737-glyph0-2"
                 x="0"
                 y="7.3579998"
                 id="use2918" />
            </g>
            <g
               style="fill:#000000;fill-opacity:1"
               id="g2924">
              <use
                 height="100%"
                 width="100%"
                 xlink:href="#lx-text2737-glyph1-1"
                 x="7.3800001"
                 y="3.9219999"
                 id="use2922" />
            </g>
            <g
               style="fill:#000000;fill-opacity:1"
               id="g2928">
              <use
                 height="100%"
                 width="100%"
                 xlink:href="#lx-text2737-glyph0-1"
                 x="19.014999"
                 y="0"
                 id="use2926" />
            </g>
            <path
               inkscape:connector-curvature="0"
               style="fill:none;stroke:#000000;stroke-width:0.398;stroke-linecap:butt;stroke-linejoin:miter;stroke-miterlimit:10;stroke-opacity:1"
               d="M 1.25e-4,-0.00178125 H 4.925906"
               transform="matrix(1,0,0,-1,18.538,1.432)"
               id="path2930" />
            <g
               style="fill:#000000;fill-opacity:1"
               id="g2934">
              <use
                 height="100%"
                 width="100%"
                 xlink:href="#lx-text2737-glyph2-1"
                 x="18.538"
                 y="7.3579998"
                 id="use2932" />
            </g>
          </g>
        </g>
        <g
           id="lx-text3038"
           transform="matrix(0.352778,0,0,0.352778,120.20115,139.87844)">
          <defs
             id="defs3185">
            <g
               id="g3183">
              <symbol
                 id="lx-text3038-glyph0-0"
                 overflow="visible"
                 style="overflow:visible">
                <path
                   id="path3171"
                   d=""
                   style="stroke:none"
                   inkscape:connector-curvature="0" />
              </symbol>
              <symbol
                 id="lx-text3038-glyph0-1"
                 overflow="visible"
                 style="overflow:visible">
                <path
                   id="path3174"
                   d="m 3.65625,-3.984375 h 0.859375 c 0.203125,0 0.296875,0 0.296875,-0.203125 0,-0.109375 -0.09375,-0.109375 -0.265625,-0.109375 H 3.71875 L 3.921875,-5.4375 c 0.046875,-0.203125 0.1875,-0.90625 0.25,-1.03125 0.078125,-0.1875 0.25,-0.34375 0.46875,-0.34375 0.03125,0 0.296875,0 0.484375,0.1875 -0.4375,0.03125 -0.546875,0.390625 -0.546875,0.53125 0,0.234375 0.1875,0.359375 0.375,0.359375 C 5.21875,-5.734375 5.5,-5.96875 5.5,-6.34375 c 0,-0.453125 -0.453125,-0.6875 -0.859375,-0.6875 -0.34375,0 -0.96875,0.1875 -1.265625,1.171875 -0.0625,0.203125 -0.09375,0.3125 -0.328125,1.5625 h -0.6875 c -0.203125,0 -0.3125,0 -0.3125,0.1875 0,0.125 0.09375,0.125 0.28125,0.125 h 0.65625 L 2.25,-0.046875 c -0.1875,0.96875 -0.359375,1.875 -0.875,1.875 -0.046875,0 -0.28125,0 -0.484375,-0.1875 C 1.359375,1.609375 1.453125,1.25 1.453125,1.109375 1.453125,0.875 1.265625,0.75 1.078125,0.75 0.8125,0.75 0.53125,0.984375 0.53125,1.359375 c 0,0.4375 0.4375,0.6875 0.84375,0.6875 0.546875,0 0.953125,-0.59375 1.125,-0.96875 0.328125,-0.625 0.546875,-1.828125 0.5625,-1.90625 z m 0,0"
                   style="stroke:none"
                   inkscape:connector-curvature="0" />
              </symbol>
              <symbol
                 id="lx-text3038-glyph1-0"
                 overflow="visible"
                 style="overflow:visible">
                <path
                   id="path3177"
                   d=""
                   style="stroke:none"
                   inkscape:connector-curvature="0" />
              </symbol>
              <symbol
                 id="lx-text3038-glyph1-1"
                 overflow="visible"
                 style="overflow:visible">
                <path
                   id="path3180"
                   d="m 0.84375,-0.4375 c -0.015625,0.09375 -0.0625,0.265625 -0.0625,0.28125 0,0.15625 0.125,0.21875 0.234375,0.21875 0.125,0 0.234375,-0.078125 0.28125,-0.140625 0.03125,-0.0625 0.078125,-0.296875 0.125,-0.4375 0.03125,-0.125 0.109375,-0.453125 0.140625,-0.625 0.046875,-0.15625 0.09375,-0.3125 0.125,-0.46875 0.078125,-0.28125 0.09375,-0.34375 0.296875,-0.625 C 2.171875,-2.515625 2.5,-2.875 3.03125,-2.875 c 0.390625,0 0.40625,0.359375 0.40625,0.484375 0,0.421875 -0.296875,1.1875 -0.40625,1.484375 -0.078125,0.203125 -0.109375,0.265625 -0.109375,0.375 0,0.375 0.296875,0.59375 0.65625,0.59375 0.703125,0 1,-0.953125 1,-1.0625 0,-0.09375 -0.078125,-0.09375 -0.109375,-0.09375 -0.09375,0 -0.09375,0.046875 -0.125,0.125 C 4.1875,-0.40625 3.875,-0.125 3.609375,-0.125 c -0.15625,0 -0.1875,-0.09375 -0.1875,-0.25 0,-0.15625 0.046875,-0.25 0.171875,-0.5625 0.078125,-0.21875 0.359375,-0.953125 0.359375,-1.34375 0,-0.671875 -0.53125,-0.796875 -0.90625,-0.796875 -0.578125,0 -0.96875,0.359375 -1.171875,0.640625 -0.046875,-0.484375 -0.453125,-0.640625 -0.75,-0.640625 -0.296875,0 -0.453125,0.21875 -0.546875,0.375 -0.15625,0.265625 -0.25,0.65625 -0.25,0.703125 0,0.078125 0.09375,0.078125 0.125,0.078125 0.09375,0 0.09375,-0.015625 0.140625,-0.203125 0.109375,-0.40625 0.25,-0.75 0.515625,-0.75 0.1875,0 0.234375,0.15625 0.234375,0.34375 0,0.125 -0.0625,0.390625 -0.125,0.578125 -0.046875,0.1875 -0.109375,0.46875 -0.140625,0.625 z m 0,0"
                   style="stroke:none"
                   inkscape:connector-curvature="0" />
              </symbol>
            </g>
          </defs>
          <g
             id="lx-text3038-surface1">
            <g
               id="g3189"
               style="fill:#000000;fill-opacity:1">
              <use
                 id="use3187"
                 y="0"
                 x="0"
                 xlink:href="#lx-text3038-glyph0-1"
                 width="100%"
                 height="100%" />
            </g>
            <g
               id="g3193"
               style="fill:#000000;fill-opacity:1">
              <use
                 id="use3191"
                 y="1.495"
                 x="4.8779998"
                 xlink:href="#lx-text3038-glyph1-1"
                 width="100%"
                 height="100%" />
            </g>
          </g>
        </g>
        <g
           id="lx-text3042"
           transform="matrix(0.352778,0,0,0.352778,101.93718,127.64594)">
          <defs
             id="defs3229">
            <g
               id="g3227">
              <symbol
                 id="lx-text3042-glyph0-0"
                 overflow="visible"
                 style="overflow:visible">
                <path
                   id="path3197"
                   d=""
                   style="stroke:none"
                   inkscape:connector-curvature="0" />
              </symbol>
              <symbol
                 id="lx-text3042-glyph0-1"
                 overflow="visible"
                 style="overflow:visible">
                <path
                   id="path3200"
                   d="m 3.65625,-3.984375 h 0.859375 c 0.203125,0 0.296875,0 0.296875,-0.203125 0,-0.109375 -0.09375,-0.109375 -0.265625,-0.109375 H 3.71875 L 3.921875,-5.4375 c 0.046875,-0.203125 0.1875,-0.90625 0.25,-1.03125 0.078125,-0.1875 0.25,-0.34375 0.46875,-0.34375 0.03125,0 0.296875,0 0.484375,0.1875 -0.4375,0.03125 -0.546875,0.390625 -0.546875,0.53125 0,0.234375 0.1875,0.359375 0.375,0.359375 C 5.21875,-5.734375 5.5,-5.96875 5.5,-6.34375 c 0,-0.453125 -0.453125,-0.6875 -0.859375,-0.6875 -0.34375,0 -0.96875,0.1875 -1.265625,1.171875 -0.0625,0.203125 -0.09375,0.3125 -0.328125,1.5625 h -0.6875 c -0.203125,0 -0.3125,0 -0.3125,0.1875 0,0.125 0.09375,0.125 0.28125,0.125 h 0.65625 L 2.25,-0.046875 c -0.1875,0.96875 -0.359375,1.875 -0.875,1.875 -0.046875,0 -0.28125,0 -0.484375,-0.1875 C 1.359375,1.609375 1.453125,1.25 1.453125,1.109375 1.453125,0.875 1.265625,0.75 1.078125,0.75 0.8125,0.75 0.53125,0.984375 0.53125,1.359375 c 0,0.4375 0.4375,0.6875 0.84375,0.6875 0.546875,0 0.953125,-0.59375 1.125,-0.96875 0.328125,-0.625 0.546875,-1.828125 0.5625,-1.90625 z m 0,0"
                   style="stroke:none"
                   inkscape:connector-curvature="0" />
              </symbol>
              <symbol
                 id="lx-text3042-glyph1-0"
                 overflow="visible"
                 style="overflow:visible">
                <path
                   id="path3203"
                   d=""
                   style="stroke:none"
                   inkscape:connector-curvature="0" />
              </symbol>
              <symbol
                 id="lx-text3042-glyph1-1"
                 overflow="visible"
                 style="overflow:visible">
                <path
                   id="path3206"
                   d="M 1.09375,-3.421875 V -0.75 c 0,0.4375 -0.109375,0.4375 -0.78125,0.4375 V 0 c 0.359375,-0.015625 0.859375,-0.03125 1.140625,-0.03125 0.25,0 0.765625,0.015625 1.109375,0.03125 v -0.3125 c -0.671875,0 -0.78125,0 -0.78125,-0.4375 V -2.59375 C 1.78125,-3.625 2.5,-4.1875 3.125,-4.1875 c 0.640625,0 0.75,0.53125 0.75,1.109375 V -0.75 c 0,0.4375 -0.109375,0.4375 -0.78125,0.4375 V 0 c 0.34375,-0.015625 0.859375,-0.03125 1.125,-0.03125 0.25,0 0.78125,0.015625 1.109375,0.03125 v -0.3125 c -0.515625,0 -0.765625,0 -0.765625,-0.296875 v -1.90625 c 0,-0.859375 0,-1.15625 -0.3125,-1.515625 -0.140625,-0.171875 -0.46875,-0.375 -1.046875,-0.375 C 2.46875,-4.40625 2,-3.984375 1.71875,-3.359375 V -4.40625 L 0.3125,-4.296875 v 0.3125 c 0.703125,0 0.78125,0.0625 0.78125,0.5625 z m 0,0"
                   style="stroke:none"
                   inkscape:connector-curvature="0" />
              </symbol>
              <symbol
                 id="lx-text3042-glyph1-2"
                 overflow="visible"
                 style="overflow:visible">
                <path
                   id="path3209"
                   d="M 4.6875,-2.140625 C 4.6875,-3.40625 3.703125,-4.46875 2.5,-4.46875 c -1.25,0 -2.21875,1.09375 -2.21875,2.328125 0,1.296875 1.03125,2.25 2.203125,2.25 1.203125,0 2.203125,-0.984375 2.203125,-2.25 z m -2.1875,2 c -0.4375,0 -0.875,-0.203125 -1.140625,-0.671875 -0.25,-0.4375 -0.25,-1.046875 -0.25,-1.40625 0,-0.390625 0,-0.921875 0.234375,-1.359375 C 1.609375,-4.03125 2.078125,-4.25 2.484375,-4.25 c 0.4375,0 0.859375,0.21875 1.125,0.65625 0.265625,0.421875 0.265625,1 0.265625,1.375 0,0.359375 0,0.90625 -0.21875,1.34375 C 3.421875,-0.421875 2.984375,-0.140625 2.5,-0.140625 Z m 0,0"
                   style="stroke:none"
                   inkscape:connector-curvature="0" />
              </symbol>
              <symbol
                 id="lx-text3042-glyph1-3"
                 overflow="visible"
                 style="overflow:visible">
                <path
                   id="path3212"
                   d="m 1.171875,-2.171875 c 0,-1.625 0.8125,-2.046875 1.34375,-2.046875 0.09375,0 0.71875,0.015625 1.0625,0.375 -0.40625,0.03125 -0.46875,0.328125 -0.46875,0.453125 0,0.265625 0.1875,0.453125 0.453125,0.453125 0.265625,0 0.46875,-0.15625 0.46875,-0.46875 0,-0.671875 -0.765625,-1.0625 -1.53125,-1.0625 -1.25,0 -2.15625,1.078125 -2.15625,2.3125 0,1.28125 0.984375,2.265625 2.140625,2.265625 1.328125,0 1.65625,-1.203125 1.65625,-1.296875 0,-0.09375 -0.109375,-0.09375 -0.140625,-0.09375 -0.078125,0 -0.109375,0.03125 -0.125,0.09375 -0.28125,0.921875 -0.9375,1.046875 -1.296875,1.046875 -0.53125,0 -1.40625,-0.421875 -1.40625,-2.03125 z m 0,0"
                   style="stroke:none"
                   inkscape:connector-curvature="0" />
              </symbol>
              <symbol
                 id="lx-text3042-glyph1-4"
                 overflow="visible"
                 style="overflow:visible">
                <path
                   id="path3215"
                   d="m 1.71875,-3.984375 h 1.4375 v -0.3125 H 1.71875 V -6.125 h -0.25 c 0,0.8125 -0.296875,1.875 -1.28125,1.921875 v 0.21875 h 0.84375 v 2.75 c 0,1.21875 0.9375,1.34375 1.296875,1.34375 0.703125,0 0.984375,-0.703125 0.984375,-1.34375 v -0.5625 h -0.25 V -1.25 c 0,0.734375 -0.296875,1.109375 -0.671875,1.109375 -0.671875,0 -0.671875,-0.90625 -0.671875,-1.078125 z m 0,0"
                   style="stroke:none"
                   inkscape:connector-curvature="0" />
              </symbol>
              <symbol
                 id="lx-text3042-glyph1-5"
                 overflow="visible"
                 style="overflow:visible">
                <path
                   id="path3218"
                   d="M 1.765625,-4.40625 0.375,-4.296875 v 0.3125 c 0.640625,0 0.734375,0.0625 0.734375,0.546875 V -0.75 c 0,0.4375 -0.109375,0.4375 -0.78125,0.4375 V 0 C 0.640625,-0.015625 1.1875,-0.03125 1.421875,-0.03125 1.78125,-0.03125 2.125,-0.015625 2.46875,0 v -0.3125 c -0.671875,0 -0.703125,-0.046875 -0.703125,-0.4375 z m 0.03125,-1.734375 c 0,-0.3125 -0.234375,-0.53125 -0.515625,-0.53125 -0.3125,0 -0.53125,0.265625 -0.53125,0.53125 0,0.265625 0.21875,0.53125 0.53125,0.53125 0.28125,0 0.515625,-0.21875 0.515625,-0.53125 z m 0,0"
                   style="stroke:none"
                   inkscape:connector-curvature="0" />
              </symbol>
              <symbol
                 id="lx-text3042-glyph1-6"
                 overflow="visible"
                 style="overflow:visible">
                <path
                   id="path3221"
                   d="M 3.890625,-0.78125 V 0.109375 L 5.328125,0 V -0.3125 C 4.640625,-0.3125 4.5625,-0.375 4.5625,-0.875 v -3.53125 l -1.46875,0.109375 v 0.3125 c 0.6875,0 0.78125,0.0625 0.78125,0.5625 v 1.765625 c 0,0.875 -0.484375,1.546875 -1.21875,1.546875 -0.828125,0 -0.875,-0.46875 -0.875,-0.984375 v -3.3125 L 0.3125,-4.296875 v 0.3125 c 0.78125,0 0.78125,0.03125 0.78125,0.90625 v 1.5 c 0,0.78125 0,1.6875 1.515625,1.6875 0.5625,0 1,-0.28125 1.28125,-0.890625 z m 0,0"
                   style="stroke:none"
                   inkscape:connector-curvature="0" />
              </symbol>
              <symbol
                 id="lx-text3042-glyph1-7"
                 overflow="visible"
                 style="overflow:visible">
                <path
                   id="path3224"
                   d="M 1.109375,-2.515625 C 1.171875,-4 2.015625,-4.25 2.359375,-4.25 c 1.015625,0 1.125,1.34375 1.125,1.734375 z m 0,0.21875 h 2.78125 c 0.21875,0 0.25,0 0.25,-0.21875 0,-0.984375 -0.546875,-1.953125 -1.78125,-1.953125 -1.15625,0 -2.078125,1.03125 -2.078125,2.28125 0,1.328125 1.046875,2.296875 2.1875,2.296875 C 3.6875,0.109375 4.140625,-1 4.140625,-1.1875 4.140625,-1.28125 4.0625,-1.3125 4,-1.3125 c -0.078125,0 -0.109375,0.0625 -0.125,0.140625 -0.34375,1.03125 -1.25,1.03125 -1.34375,1.03125 -0.5,0 -0.890625,-0.296875 -1.125,-0.671875 -0.296875,-0.46875 -0.296875,-1.125 -0.296875,-1.484375 z m 0,0"
                   style="stroke:none"
                   inkscape:connector-curvature="0" />
              </symbol>
            </g>
          </defs>
          <g
             id="lx-text3042-surface1">
            <g
               id="g3233"
               style="fill:#000000;fill-opacity:1">
              <use
                 id="use3231"
                 y="0"
                 x="0"
                 xlink:href="#lx-text3042-glyph0-1"
                 width="100%"
                 height="100%" />
            </g>
            <g
               id="g3241"
               style="fill:#000000;fill-opacity:1">
              <use
                 id="use3235"
                 y="0"
                 x="9.2709999"
                 xlink:href="#lx-text3042-glyph1-1"
                 width="100%"
                 height="100%" />
              <use
                 id="use3237"
                 y="0"
                 x="14.806221"
                 xlink:href="#lx-text3042-glyph1-2"
                 width="100%"
                 height="100%" />
              <use
                 id="use3239"
                 y="0"
                 x="19.787521"
                 xlink:href="#lx-text3042-glyph1-1"
                 width="100%"
                 height="100%" />
            </g>
            <g
               id="g3249"
               style="fill:#000000;fill-opacity:1">
              <use
                 id="use3243"
                 y="0"
                 x="28.640287"
                 xlink:href="#lx-text3042-glyph1-3"
                 width="100%"
                 height="100%" />
              <use
                 id="use3245"
                 y="0"
                 x="33.067665"
                 xlink:href="#lx-text3042-glyph1-2"
                 width="100%"
                 height="100%" />
              <use
                 id="use3247"
                 y="0"
                 x="38.048965"
                 xlink:href="#lx-text3042-glyph1-1"
                 width="100%"
                 height="100%" />
            </g>
            <g
               id="g3257"
               style="fill:#000000;fill-opacity:1">
              <use
                 id="use3251"
                 y="0"
                 x="43.305233"
                 xlink:href="#lx-text3042-glyph1-4"
                 width="100%"
                 height="100%" />
              <use
                 id="use3253"
                 y="0"
                 x="47.179688"
                 xlink:href="#lx-text3042-glyph1-5"
                 width="100%"
                 height="100%" />
              <use
                 id="use3255"
                 y="0"
                 x="49.9473"
                 xlink:href="#lx-text3042-glyph1-1"
                 width="100%"
                 height="100%" />
            </g>
            <g
               id="g3263"
               style="fill:#000000;fill-opacity:1">
              <use
                 id="use3259"
                 y="0"
                 x="55.213531"
                 xlink:href="#lx-text3042-glyph1-6"
                 width="100%"
                 height="100%" />
              <use
                 id="use3261"
                 y="0"
                 x="60.748749"
                 xlink:href="#lx-text3042-glyph1-7"
                 width="100%"
                 height="100%" />
            </g>
          </g>
        </g>
        <path
           style="opacity:1;vector-effect:none;fill:none;fill-opacity:1;stroke:#000000;stroke-width:0.225;stroke-linecap:butt;stroke-linejoin:miter;stroke-miterlimit:4;stroke-dasharray:none;stroke-dashoffset:0;stroke-opacity:1;marker-end:url(#Arrow1Lend)"
           d="m 119.44047,139.19493 -22.678565,7.08705"
           id="path3426"
           inkscape:connector-curvature="0" />
      </g>
    </g>
  </g>
</svg>
