%!PS-Adobe-3.0 EPSF-3.0
%%Creator: cairo 1.15.4 (http://cairographics.org)
%%CreationDate: Thu Sep 17 16:57:58 2020
%%Pages: 1
%%DocumentData: Clean7Bit
%%LanguageLevel: 2
%%BoundingBox: 184 315 515 552
%%EndComments
%%BeginProlog
save
50 dict begin
/q { gsave } bind def
/Q { grestore } bind def
/cm { 6 array astore concat } bind def
/w { setlinewidth } bind def
/J { setlinecap } bind def
/j { setlinejoin } bind def
/M { setmiterlimit } bind def
/d { setdash } bind def
/m { moveto } bind def
/l { lineto } bind def
/c { curveto } bind def
/h { closepath } bind def
/re { exch dup neg 3 1 roll 5 3 roll moveto 0 rlineto
      0 exch rlineto 0 rlineto closepath } bind def
/S { stroke } bind def
/f { fill } bind def
/f* { eofill } bind def
/n { newpath } bind def
/W { clip } bind def
/W* { eoclip } bind def
/BT { } bind def
/ET { } bind def
/pdfmark where { pop globaldict /?pdfmark /exec load put }
    { globaldict begin /?pdfmark /pop load def /pdfmark
    /cleartomark load def end } ifelse
/BDC { mark 3 1 roll /BDC pdfmark } bind def
/EMC { mark /EMC pdfmark } bind def
/cairo_store_point { /cairo_point_y exch def /cairo_point_x exch def } def
/Tj { show currentpoint cairo_store_point } bind def
/TJ {
  {
    dup
    type /stringtype eq
    { show } { -0.001 mul 0 cairo_font_matrix dtransform rmoveto } ifelse
  } forall
  currentpoint cairo_store_point
} bind def
/cairo_selectfont { cairo_font_matrix aload pop pop pop 0 0 6 array astore
    cairo_font exch selectfont cairo_point_x cairo_point_y moveto } bind def
/Tf { pop /cairo_font exch def /cairo_font_matrix where
      { pop cairo_selectfont } if } bind def
/Td { matrix translate cairo_font_matrix matrix concatmatrix dup
      /cairo_font_matrix exch def dup 4 get exch 5 get cairo_store_point
      /cairo_font where { pop cairo_selectfont } if } bind def
/Tm { 2 copy 8 2 roll 6 array astore /cairo_font_matrix exch def
      cairo_store_point /cairo_font where { pop cairo_selectfont } if } bind def
/g { setgray } bind def
/rg { setrgbcolor } bind def
/d1 { setcachedevice } bind def
/cairo_flush_ascii85_file { cairo_ascii85_file status { cairo_ascii85_file flushfile } if } def
/cairo_image { image cairo_flush_ascii85_file } def
/cairo_imagemask { imagemask cairo_flush_ascii85_file } def
%%EndProlog
%%BeginSetup
%%EndSetup
%%Page: 1 1
%%BeginPageSetup
%%PageBoundingBox: 184 315 515 552
%%EndPageSetup
q 184 315 331 237 rectclip
1 0 0 -1 0 842 cm q
0 g
0.930402 w
0 J
0 j
[] 0.0 d
4 M q 0.790399 0 0 1 0 0 cm
261.784 526.465 m 261.784 290.254 l S Q
206.914 299.555 m 209.855 303.277 l 206.914 290.254 l 203.973 303.277 l
 h
206.914 299.555 m f*
0.992429 w
q 0 1 -0.790399 0 0 0 cm
299.555 -261.784 m 303.277 -265.506 l 290.254 -261.784 l 303.277 -258.063
 l h
299.555 -261.784 m S Q
0.730442 w
q 0.790399 0 0 1 0 0 cm
233.723 441.441 m 649.37 441.441 l S Q
507.488 441.441 m 505.18 444.363 l 513.262 441.441 l 505.18 438.52 l h
507.488 441.441 m f*
0.779139 w
q -0.790399 0 0 -1 0 0 cm
-642.066 -441.441 m -639.145 -444.363 l -649.37 -441.441 l -639.145 -438.52
 l h
-642.066 -441.441 m S Q
0.570727 w
q 0.790399 0 0 1 0 0 cm
360.251 436.57 m 360.251 447.352 l S Q
q 0.790399 0 0 1 0 0 cm
462.662 436.57 m 462.662 447.352 l S Q
0.398552 w
q 0.790399 0 0 1 0 0 cm
360.251 517.246 m 521.305 517.246 l S Q
q 0.790399 0 0 1 0 0 cm
261.784 365.641 m 360.251 365.641 l S Q
2 j
q 0.790399 0 0 1 0 0 cm
354.414 360.332 m 360.286 360.332 l 360.286 371.316 l 354.414 371.316 l
 S Q
q 0.790399 0 0 1 0 0 cm
354.172 511.754 m 360.044 511.754 l 360.044 522.738 l 354.172 522.738 l
 S Q
0.886275 0 0 rg
1.355078 w
0 j
q 0.790399 0 0 1 0 0 cm
261.784 365.641 m 304.88 365.641 l 415.623 517.246 l 485.628 517.246 l S Q
0 g
0.570727 w
q 0.790399 0 0 1 0 0 cm
415.623 447.352 m 415.623 436.57 l S Q
q 0.790399 0 0 1 0 0 cm
304.88 436.57 m 304.88 447.352 l S Q
0.398552 w
[ 0.398552 2.391315] 0 d
q 0.790399 0 0 1 0 0 cm
304.88 365.641 m 304.88 441.441 l S Q
[ 0.398552 3.18842] 0 d
q 0.790399 0 0 1 0 0 cm
415.623 441.441 m 415.623 517.246 l S Q
285.453 451.5 m 285.453 451.234 285.453 451.234 285.164 451.234 c 284.523
 451.852 283.641 451.852 283.242 451.852 c 283.242 452.207 l 283.465 452.207
 284.125 452.207 284.656 451.941 c 284.656 456.957 l 284.656 457.289 284.656
 457.422 283.684 457.422 c 283.309 457.422 l 283.309 457.777 l 283.484 457.777
 284.699 457.73 285.055 457.73 c 285.363 457.73 286.602 457.777 286.824 
457.777 c 286.824 457.422 l 286.445 457.422 l 285.453 457.422 285.453 457.289
 285.453 456.957 c h
285.453 451.5 m f
0.563023 w
[] 0.0 d
10 M q 1 0 0 -1 0 0 cm
282.156 -459.805 m 287.777 -459.805 l S Q
287.133 466.395 m 286.801 466.395 l 286.777 466.617 286.668 467.191 286.535
 467.277 c 286.469 467.344 285.719 467.344 285.563 467.344 c 283.75 467.344
 l 284.789 466.438 285.145 466.152 285.719 465.688 c 286.445 465.113 287.133
 464.492 287.133 463.566 c 287.133 462.371 286.094 461.645 284.832 461.645
 c 283.617 461.645 282.777 462.504 282.777 463.41 c 282.777 463.898 283.199
 463.965 283.309 463.965 c 283.531 463.965 283.816 463.785 283.816 463.434
 c 283.816 463.258 283.75 462.902 283.242 462.902 c 283.551 462.219 284.215
 461.996 284.68 461.996 c 285.672 461.996 286.184 462.77 286.184 463.566
 c 286.184 464.426 285.563 465.09 285.254 465.445 c 282.887 467.809 l 282.777
 467.898 282.777 467.922 282.777 468.184 c 286.844 468.184 l h
287.133 466.395 m f
367.082 450.879 m 367.082 450.527 367.082 450.504 366.75 450.504 c 365.867
 451.41 364.629 451.41 364.188 451.41 c 364.188 451.852 l 364.477 451.852
 365.293 451.852 366.023 451.477 c 366.023 458.793 l 366.023 459.301 365.977
 459.457 364.719 459.457 c 364.277 459.457 l 364.277 459.898 l 364.762 459.855
 365.977 459.855 366.555 459.855 c 367.105 459.855 368.344 459.855 368.828
 459.898 c 368.828 459.457 l 368.387 459.457 l 367.105 459.457 367.082 459.301
 367.082 458.793 c h
367.082 450.879 m f
205.105 448.867 m 205.105 447.742 205.039 446.613 204.551 445.574 c 203.91
 444.203 202.738 443.984 202.164 443.984 c 201.301 443.984 200.285 444.359
 199.688 445.664 c 199.246 446.637 199.18 447.742 199.18 448.867 c 199.18
 449.93 199.227 451.188 199.82 452.273 c 200.418 453.398 201.457 453.688
 202.141 453.688 c 202.895 453.688 203.977 453.398 204.598 452.051 c 205.039
 451.078 205.105 449.973 205.105 448.867 c h
202.141 453.375 m 201.59 453.375 200.75 453.023 200.508 451.676 c 200.352
 450.836 200.352 449.531 200.352 448.691 c 200.352 447.785 200.352 446.855
 200.461 446.105 c 200.727 444.426 201.789 444.293 202.141 444.293 c 202.605
 444.293 203.535 444.559 203.801 445.949 c 203.953 446.746 203.953 447.809
 203.953 448.691 c 203.953 449.75 203.953 450.703 203.801 451.609 c 203.578
 452.957 202.785 453.375 202.141 453.375 c h
202.141 453.375 m f
232.215 448.199 m 232.215 448.012 232.215 448.012 232.012 448.012 c 231.555
 448.449 230.926 448.449 230.645 448.449 c 230.645 448.703 l 230.801 448.703
 231.273 448.703 231.648 448.512 c 231.648 452.082 l 231.648 452.316 231.648
 452.414 230.957 452.414 c 230.691 452.414 l 230.691 452.664 l 230.816 452.664
 231.684 452.633 231.934 452.633 c 232.152 452.633 233.035 452.664 233.191
 452.664 c 233.191 452.414 l 232.922 452.414 l 232.215 452.414 232.215 452.316
 232.215 452.082 c h
232.215 448.199 m f
0.400514 w
q 1 0 0 -1 0 0 cm
229.871 -454.105 m 233.871 -454.105 l S Q
233.41 458.793 m 233.176 458.793 l 233.16 458.953 233.082 459.359 232.988
 459.426 c 232.941 459.473 232.406 459.473 232.293 459.473 c 231.004 459.473
 l 231.746 458.828 231.996 458.621 232.406 458.293 c 232.922 457.883 233.41
 457.441 233.41 456.781 c 233.41 455.934 232.672 455.414 231.777 455.414
 c 230.91 455.414 230.313 456.027 230.313 456.672 c 230.313 457.02 230.613
 457.066 230.691 457.066 c 230.848 457.066 231.051 456.941 231.051 456.688
 c 231.051 456.563 231.004 456.313 230.645 456.313 c 230.863 455.824 231.336
 455.664 231.664 455.664 c 232.375 455.664 232.734 456.215 232.734 456.781
 c 232.734 457.395 232.293 457.867 232.074 458.117 c 230.391 459.801 l 230.313
 459.863 230.313 459.879 230.313 460.07 c 233.207 460.07 l h
233.41 458.793 m f
243.902 454.301 m 244.078 454.301 244.266 454.301 244.266 454.094 c 244.266
 453.906 244.078 453.906 243.902 453.906 c 238.48 453.906 l 238.305 453.906
 238.133 453.906 238.133 454.094 c 238.133 454.301 238.305 454.301 238.48
 454.301 c h
243.902 454.301 m f
251.352 448.199 m 251.352 448.012 251.352 448.012 251.148 448.012 c 250.691
 448.449 250.063 448.449 249.777 448.449 c 249.777 448.703 l 249.938 448.703
 250.406 448.703 250.785 448.512 c 250.785 452.082 l 250.785 452.316 250.785
 452.414 250.094 452.414 c 249.824 452.414 l 249.824 452.664 l 249.953 452.664
 250.816 452.633 251.066 452.633 c 251.289 452.633 252.168 452.664 252.328
 452.664 c 252.328 452.414 l 252.059 452.414 l 251.352 452.414 251.352 452.316
 251.352 452.082 c h
251.352 448.199 m f
q 1 0 0 -1 0 0 cm
248.527 -454.105 m 253.484 -454.105 l S Q
249.379 459.629 m 249.363 459.723 249.316 459.895 249.316 459.91 c 249.316
 460.07 249.441 460.133 249.551 460.133 c 249.676 460.133 249.785 460.055
 249.832 459.988 c 249.863 459.926 249.914 459.691 249.961 459.551 c 249.992
 459.426 250.07 459.094 250.102 458.922 c 250.148 458.762 250.195 458.605
 250.227 458.449 c 250.305 458.164 250.32 458.102 250.527 457.82 c 250.715
 457.535 251.043 457.176 251.578 457.176 c 251.973 457.176 251.988 457.535
 251.988 457.664 c 251.988 458.086 251.688 458.859 251.578 459.156 c 251.5
 459.359 251.469 459.426 251.469 459.535 c 251.469 459.91 251.77 460.133
 252.129 460.133 c 252.836 460.133 253.137 459.172 253.137 459.063 c 253.137
 458.969 253.059 458.969 253.027 458.969 c 252.93 458.969 252.93 459.016
 252.898 459.094 c 252.742 459.66 252.43 459.941 252.16 459.941 c 252.004
 459.941 251.973 459.848 251.973 459.691 c 251.973 459.535 252.02 459.441
 252.145 459.125 c 252.223 458.906 252.508 458.164 252.508 457.773 c 252.508
 457.098 251.973 456.973 251.594 456.973 c 251.012 456.973 250.621 457.332
 250.414 457.617 c 250.367 457.129 249.961 456.973 249.66 456.973 c 249.363
 456.973 249.203 457.191 249.109 457.348 c 248.953 457.617 248.859 458.008
 248.859 458.055 c 248.859 458.133 248.953 458.133 248.984 458.133 c 249.078
 458.133 249.078 458.117 249.125 457.93 c 249.234 457.52 249.379 457.176
 249.645 457.176 c 249.832 457.176 249.879 457.332 249.879 457.52 c 249.879
 457.648 249.816 457.914 249.754 458.102 c 249.707 458.293 249.645 458.574
 249.613 458.73 c h
249.379 459.629 m f
320.117 450.016 m 320.117 449.824 320.117 449.824 319.914 449.824 c 319.457
 450.266 318.828 450.266 318.543 450.266 c 318.543 450.52 l 318.703 450.52
 319.172 450.52 319.551 450.328 c 319.551 453.898 l 319.551 454.133 319.551
 454.23 318.859 454.23 c 318.59 454.23 l 318.59 454.48 l 318.719 454.48 
319.582 454.449 319.832 454.449 c 320.055 454.449 320.934 454.48 321.09 
454.48 c 321.09 454.23 l 320.824 454.23 l 320.117 454.23 320.117 454.133
 320.117 453.898 c h
320.117 450.016 m f
q 1 0 0 -1 0 0 cm
317.773 -455.922 m 321.77 -455.922 l S Q
321.313 460.609 m 321.074 460.609 l 321.059 460.77 320.98 461.176 320.887
 461.238 c 320.84 461.289 320.305 461.289 320.195 461.289 c 318.906 461.289
 l 319.645 460.645 319.898 460.438 320.305 460.109 c 320.824 459.699 321.313
 459.258 321.313 458.598 c 321.313 457.75 320.574 457.23 319.676 457.23 
c 318.813 457.23 318.215 457.844 318.215 458.488 c 318.215 458.836 318.512
 458.883 318.59 458.883 c 318.75 458.883 318.953 458.754 318.953 458.504
 c 318.953 458.379 318.906 458.125 318.543 458.125 c 318.766 457.641 319.234
 457.48 319.566 457.48 c 320.273 457.48 320.637 458.031 320.637 458.598 
c 320.637 459.211 320.195 459.684 319.977 459.934 c 318.293 461.617 l 318.215
 461.68 318.215 461.695 318.215 461.883 c 321.105 461.883 l h
321.313 460.609 m f
329.305 456.117 m 332.102 456.117 l 332.246 456.117 332.434 456.117 332.434
 455.91 c 332.434 455.723 332.246 455.723 332.102 455.723 c 329.305 455.723
 l 329.305 452.906 l 329.305 452.766 329.305 452.578 329.102 452.578 c 328.895
 452.578 328.895 452.766 328.895 452.906 c 328.895 455.723 l 326.098 455.723
 l 325.957 455.723 325.766 455.723 325.766 455.91 c 325.766 456.117 325.957
 456.117 326.098 456.117 c 328.895 456.117 l 328.895 458.93 l 328.895 459.07
 328.895 459.262 329.102 459.262 c 329.305 459.262 329.305 459.07 329.305
 458.93 c h
329.305 456.117 m f
339.25 450.016 m 339.25 449.824 339.25 449.824 339.047 449.824 c 338.59
 450.266 337.961 450.266 337.68 450.266 c 337.68 450.52 l 337.836 450.52
 338.309 450.52 338.688 450.328 c 338.688 453.898 l 338.688 454.133 338.688
 454.23 337.992 454.23 c 337.727 454.23 l 337.727 454.48 l 337.852 454.48
 338.719 454.449 338.969 454.449 c 339.188 454.449 340.07 454.48 340.227
 454.48 c 340.227 454.23 l 339.961 454.23 l 339.25 454.23 339.25 454.133
 339.25 453.898 c h
339.25 450.016 m f
q 1 0 0 -1 0 0 cm
336.43 -455.922 m 341.387 -455.922 l S Q
337.277 461.445 m 337.262 461.539 337.215 461.711 337.215 461.727 c 337.215
 461.883 337.34 461.949 337.449 461.949 c 337.578 461.949 337.688 461.867
 337.734 461.805 c 337.766 461.742 337.813 461.508 337.859 461.367 c 337.891
 461.238 337.969 460.91 338 460.738 c 338.047 460.578 338.098 460.422 338.129
 460.266 c 338.207 459.98 338.223 459.918 338.426 459.637 c 338.613 459.352
 338.945 458.992 339.48 458.992 c 339.871 458.992 339.887 459.352 339.887
 459.48 c 339.887 459.902 339.59 460.676 339.48 460.973 c 339.402 461.176
 339.371 461.238 339.371 461.352 c 339.371 461.727 339.668 461.949 340.031
 461.949 c 340.738 461.949 341.035 460.988 341.035 460.879 c 341.035 460.785
 340.957 460.785 340.926 460.785 c 340.832 460.785 340.832 460.832 340.801
 460.91 c 340.645 461.477 340.328 461.758 340.063 461.758 c 339.902 461.758
 339.871 461.664 339.871 461.508 c 339.871 461.352 339.918 461.254 340.047
 460.941 c 340.125 460.723 340.406 459.98 340.406 459.59 c 340.406 458.914
 339.871 458.789 339.496 458.789 c 338.914 458.789 338.52 459.148 338.316
 459.434 c 338.27 458.945 337.859 458.789 337.563 458.789 c 337.262 458.789
 337.105 459.008 337.012 459.164 c 336.855 459.434 336.758 459.824 336.758
 459.871 c 336.758 459.949 336.855 459.949 336.887 459.949 c 336.98 459.949
 336.98 459.934 337.027 459.746 c 337.137 459.336 337.277 458.992 337.547
 458.992 c 337.734 458.992 337.781 459.148 337.781 459.336 c 337.781 459.465
 337.719 459.73 337.656 459.918 c 337.609 460.109 337.547 460.391 337.516
 460.547 c h
337.277 461.445 m f
344.383 392.52 m 345.242 392.52 l 345.445 392.52 345.539 392.52 345.539
 392.316 c 345.539 392.207 345.445 392.207 345.273 392.207 c 344.445 392.207
 l 344.648 391.066 l 344.695 390.863 344.836 390.16 344.898 390.035 c 344.977
 389.848 345.148 389.691 345.367 389.691 c 345.398 389.691 345.664 389.691
 345.852 389.879 c 345.414 389.91 345.305 390.27 345.305 390.41 c 345.305
 390.645 345.492 390.77 345.68 390.77 c 345.945 390.77 346.227 390.535 346.227
 390.16 c 346.227 389.707 345.773 389.473 345.367 389.473 c 345.023 389.473
 344.398 389.66 344.102 390.645 c 344.039 390.848 344.008 390.957 343.773
 392.207 c 343.086 392.207 l 342.883 392.207 342.773 392.207 342.773 392.395
 c 342.773 392.52 342.867 392.52 343.055 392.52 c 343.711 392.52 l 342.977
 396.457 l 342.789 397.426 342.617 398.332 342.102 398.332 c 342.055 398.332
 341.82 398.332 341.617 398.145 c 342.086 398.113 342.18 397.754 342.18 
397.613 c 342.18 397.379 341.992 397.254 341.805 397.254 c 341.539 397.254
 341.258 397.488 341.258 397.863 c 341.258 398.301 341.695 398.551 342.102
 398.551 c 342.648 398.551 343.055 397.957 343.227 397.582 c 343.555 396.957
 343.773 395.754 343.789 395.676 c h
344.383 392.52 m f
346.449 397.563 m 346.434 397.656 346.387 397.828 346.387 397.844 c 346.387
 398 346.512 398.063 346.621 398.063 c 346.746 398.063 346.855 397.984 346.902
 397.922 c 346.934 397.859 346.98 397.625 347.027 397.484 c 347.059 397.359
 347.137 397.031 347.168 396.859 c 347.215 396.703 347.262 396.547 347.293
 396.391 c 347.371 396.109 347.387 396.047 347.59 395.766 c 347.777 395.484
 348.105 395.125 348.637 395.125 c 349.027 395.125 349.043 395.484 349.043
 395.609 c 349.043 396.031 348.746 396.797 348.637 397.094 c 348.559 397.297
 348.527 397.359 348.527 397.469 c 348.527 397.844 348.824 398.063 349.184
 398.063 c 349.887 398.063 350.184 397.109 350.184 397 c 350.184 396.906
 350.105 396.906 350.074 396.906 c 349.98 396.906 349.98 396.953 349.949
 397.031 c 349.793 397.594 349.48 397.875 349.215 397.875 c 349.059 397.875
 349.027 397.781 349.027 397.625 c 349.027 397.469 349.074 397.375 349.199
 397.063 c 349.277 396.844 349.559 396.109 349.559 395.719 c 349.559 395.047
 349.027 394.922 348.652 394.922 c 348.074 394.922 347.684 395.281 347.48
 395.563 c 347.434 395.078 347.027 394.922 346.73 394.922 c 346.434 394.922
 346.277 395.141 346.184 395.297 c 346.027 395.563 345.934 395.953 345.934
 396 c 345.934 396.078 346.027 396.078 346.059 396.078 c 346.152 396.078
 346.152 396.063 346.199 395.875 c 346.309 395.469 346.449 395.125 346.715
 395.125 c 346.902 395.125 346.949 395.281 346.949 395.469 c 346.949 395.594
 346.887 395.859 346.824 396.047 c 346.777 396.234 346.715 396.516 346.684
 396.672 c h
346.449 397.563 m f
292.613 357.848 m 293.473 357.848 l 293.676 357.848 293.77 357.848 293.77
 357.645 c 293.77 357.535 293.676 357.535 293.504 357.535 c 292.676 357.535
 l 292.879 356.395 l 292.926 356.191 293.066 355.488 293.129 355.363 c 293.207
 355.176 293.379 355.02 293.598 355.02 c 293.629 355.02 293.895 355.02 294.082
 355.207 c 293.645 355.238 293.535 355.598 293.535 355.738 c 293.535 355.973
 293.723 356.098 293.91 356.098 c 294.176 356.098 294.457 355.863 294.457
 355.488 c 294.457 355.035 294.004 354.801 293.598 354.801 c 293.254 354.801
 292.629 354.988 292.332 355.973 c 292.27 356.176 292.238 356.285 292.004
 357.535 c 291.316 357.535 l 291.113 357.535 291.004 357.535 291.004 357.723
 c 291.004 357.848 291.098 357.848 291.285 357.848 c 291.941 357.848 l 291.207
 361.785 l 291.02 362.754 290.848 363.66 290.332 363.66 c 290.285 363.66
 290.051 363.66 289.848 363.473 c 290.316 363.441 290.41 363.082 290.41 
362.941 c 290.41 362.707 290.223 362.582 290.035 362.582 c 289.77 362.582
 289.488 362.816 289.488 363.191 c 289.488 363.629 289.926 363.879 290.332
 363.879 c 290.879 363.879 291.285 363.285 291.457 362.91 c 291.785 362.285
 292.004 361.082 292.02 361.004 c h
292.613 357.848 m f
299.32 358.41 m 299.32 361.082 l 299.32 361.52 299.211 361.52 298.539 361.52
 c 298.539 361.832 l 298.898 361.816 299.398 361.801 299.68 361.801 c 299.93
 361.801 300.445 361.816 300.789 361.832 c 300.789 361.52 l 300.117 361.52
 300.008 361.52 300.008 361.082 c 300.008 359.238 l 300.008 358.207 300.727
 357.645 301.352 357.645 c 301.992 357.645 302.102 358.176 302.102 358.754
 c 302.102 361.082 l 302.102 361.52 301.992 361.52 301.32 361.52 c 301.32
 361.832 l 301.664 361.816 302.18 361.801 302.445 361.801 c 302.695 361.801
 303.227 361.816 303.555 361.832 c 303.555 361.52 l 303.039 361.52 302.789
 361.52 302.789 361.223 c 302.789 359.316 l 302.789 358.457 302.789 358.16
 302.477 357.801 c 302.336 357.629 302.008 357.426 301.43 357.426 c 300.695
 357.426 300.227 357.848 299.945 358.473 c 299.945 357.426 l 298.539 357.535
 l 298.539 357.848 l 299.242 357.848 299.32 357.91 299.32 358.41 c h
299.32 358.41 m f
308.449 359.691 m 308.449 358.426 307.465 357.363 306.262 357.363 c 305.012
 357.363 304.043 358.457 304.043 359.691 c 304.043 360.988 305.074 361.941
 306.246 361.941 c 307.449 361.941 308.449 360.957 308.449 359.691 c h
306.262 361.691 m 305.824 361.691 305.387 361.488 305.121 361.02 c 304.871
 360.582 304.871 359.973 304.871 359.613 c 304.871 359.223 304.871 358.691
 305.105 358.254 c 305.371 357.801 305.84 357.582 306.246 357.582 c 306.684
 357.582 307.105 357.801 307.371 358.238 c 307.637 358.66 307.637 359.238
 307.637 359.613 c 307.637 359.973 307.637 360.52 307.418 360.957 c 307.184
 361.41 306.746 361.691 306.262 361.691 c h
306.262 361.691 m f
309.836 358.41 m 309.836 361.082 l 309.836 361.52 309.727 361.52 309.055
 361.52 c 309.055 361.832 l 309.414 361.816 309.914 361.801 310.195 361.801
 c 310.445 361.801 310.961 361.816 311.305 361.832 c 311.305 361.52 l 310.633
 361.52 310.523 361.52 310.523 361.082 c 310.523 359.238 l 310.523 358.207
 311.242 357.645 311.867 357.645 c 312.508 357.645 312.617 358.176 312.617
 358.754 c 312.617 361.082 l 312.617 361.52 312.508 361.52 311.836 361.52
 c 311.836 361.832 l 312.18 361.816 312.695 361.801 312.961 361.801 c 313.211
 361.801 313.742 361.816 314.07 361.832 c 314.07 361.52 l 313.555 361.52
 313.305 361.52 313.305 361.223 c 313.305 359.316 l 313.305 358.457 313.305
 358.16 312.992 357.801 c 312.852 357.629 312.523 357.426 311.945 357.426
 c 311.211 357.426 310.742 357.848 310.461 358.473 c 310.461 357.426 l 309.055
 357.535 l 309.055 357.848 l 309.758 357.848 309.836 357.91 309.836 358.41
 c h
309.836 358.41 m f
318.77 359.66 m 318.77 358.035 319.582 357.613 320.113 357.613 c 320.207
 357.613 320.832 357.629 321.176 357.988 c 320.77 358.02 320.707 358.316
 320.707 358.441 c 320.707 358.707 320.895 358.895 321.16 358.895 c 321.426
 358.895 321.629 358.738 321.629 358.426 c 321.629 357.754 320.863 357.363
 320.098 357.363 c 318.848 357.363 317.941 358.441 317.941 359.676 c 317.941
 360.957 318.926 361.941 320.082 361.941 c 321.41 361.941 321.738 360.738
 321.738 360.645 c 321.738 360.551 321.629 360.551 321.598 360.551 c 321.52
 360.551 321.488 360.582 321.473 360.645 c 321.191 361.566 320.535 361.691
 320.176 361.691 c 319.645 361.691 318.77 361.27 318.77 359.66 c h
318.77 359.66 m f
326.711 359.691 m 326.711 358.426 325.727 357.363 324.523 357.363 c 323.273
 357.363 322.305 358.457 322.305 359.691 c 322.305 360.988 323.336 361.941
 324.508 361.941 c 325.711 361.941 326.711 360.957 326.711 359.691 c h
324.523 361.691 m 324.086 361.691 323.648 361.488 323.383 361.02 c 323.133
 360.582 323.133 359.973 323.133 359.613 c 323.133 359.223 323.133 358.691
 323.367 358.254 c 323.633 357.801 324.102 357.582 324.508 357.582 c 324.945
 357.582 325.367 357.801 325.633 358.238 c 325.898 358.66 325.898 359.238
 325.898 359.613 c 325.898 359.973 325.898 360.52 325.68 360.957 c 325.445
 361.41 325.008 361.691 324.523 361.691 c h
324.523 361.691 m f
328.098 358.41 m 328.098 361.082 l 328.098 361.52 327.988 361.52 327.316
 361.52 c 327.316 361.832 l 327.676 361.816 328.176 361.801 328.457 361.801
 c 328.707 361.801 329.223 361.816 329.566 361.832 c 329.566 361.52 l 328.895
 361.52 328.785 361.52 328.785 361.082 c 328.785 359.238 l 328.785 358.207
 329.504 357.645 330.129 357.645 c 330.77 357.645 330.879 358.176 330.879
 358.754 c 330.879 361.082 l 330.879 361.52 330.77 361.52 330.098 361.52
 c 330.098 361.832 l 330.441 361.816 330.957 361.801 331.223 361.801 c 331.473
 361.801 332.004 361.816 332.332 361.832 c 332.332 361.52 l 331.816 361.52
 331.566 361.52 331.566 361.223 c 331.566 359.316 l 331.566 358.457 331.566
 358.16 331.254 357.801 c 331.113 357.629 330.785 357.426 330.207 357.426
 c 329.473 357.426 329.004 357.848 328.723 358.473 c 328.723 357.426 l 327.316
 357.535 l 327.316 357.848 l 328.02 357.848 328.098 357.91 328.098 358.41
 c h
328.098 358.41 m f
333.98 357.848 m 335.418 357.848 l 335.418 357.535 l 333.98 357.535 l 333.98
 355.707 l 333.73 355.707 l 333.73 356.52 333.434 357.582 332.449 357.629
 c 332.449 357.848 l 333.293 357.848 l 333.293 360.598 l 333.293 361.816
 334.23 361.941 334.59 361.941 c 335.293 361.941 335.574 361.238 335.574
 360.598 c 335.574 360.035 l 335.324 360.035 l 335.324 360.582 l 335.324
 361.316 335.027 361.691 334.652 361.691 c 333.98 361.691 333.98 360.785
 333.98 360.613 c h
333.98 357.848 m f
337.902 357.426 m 336.512 357.535 l 336.512 357.848 l 337.152 357.848 337.246
 357.91 337.246 358.395 c 337.246 361.082 l 337.246 361.52 337.137 361.52
 336.465 361.52 c 336.465 361.832 l 336.777 361.816 337.324 361.801 337.559
 361.801 c 337.918 361.801 338.262 361.816 338.605 361.832 c 338.605 361.52
 l 337.934 361.52 337.902 361.473 337.902 361.082 c h
337.934 355.691 m 337.934 355.379 337.699 355.16 337.418 355.16 c 337.105
 355.16 336.887 355.426 336.887 355.691 c 336.887 355.957 337.105 356.223
 337.418 356.223 c 337.699 356.223 337.934 356.004 337.934 355.691 c h
337.934 355.691 m f
339.996 358.41 m 339.996 361.082 l 339.996 361.52 339.887 361.52 339.215
 361.52 c 339.215 361.832 l 339.574 361.816 340.074 361.801 340.355 361.801
 c 340.605 361.801 341.121 361.816 341.465 361.832 c 341.465 361.52 l 340.793
 361.52 340.684 361.52 340.684 361.082 c 340.684 359.238 l 340.684 358.207
 341.402 357.645 342.027 357.645 c 342.668 357.645 342.777 358.176 342.777
 358.754 c 342.777 361.082 l 342.777 361.52 342.668 361.52 341.996 361.52
 c 341.996 361.832 l 342.34 361.816 342.855 361.801 343.121 361.801 c 343.371
 361.801 343.902 361.816 344.23 361.832 c 344.23 361.52 l 343.715 361.52
 343.465 361.52 343.465 361.223 c 343.465 359.316 l 343.465 358.457 343.465
 358.16 343.152 357.801 c 343.012 357.629 342.684 357.426 342.105 357.426
 c 341.371 357.426 340.902 357.848 340.621 358.473 c 340.621 357.426 l 339.215
 357.535 l 339.215 357.848 l 339.918 357.848 339.996 357.91 339.996 358.41
 c h
339.996 358.41 m f
348.059 361.051 m 348.059 361.941 l 349.496 361.832 l 349.496 361.52 l 
348.809 361.52 348.73 361.457 348.73 360.957 c 348.73 357.426 l 347.262 
357.535 l 347.262 357.848 l 347.949 357.848 348.043 357.91 348.043 358.41
 c 348.043 360.176 l 348.043 361.051 347.559 361.723 346.824 361.723 c 345.996
 361.723 345.949 361.254 345.949 360.738 c 345.949 357.426 l 344.48 357.535
 l 344.48 357.848 l 345.262 357.848 345.262 357.879 345.262 358.754 c 345.262
 360.254 l 345.262 361.035 345.262 361.941 346.777 361.941 c 347.34 361.941
 347.777 361.66 348.059 361.051 c h
348.059 361.051 m f
350.813 359.316 m 350.875 357.832 351.719 357.582 352.063 357.582 c 353.078
 357.582 353.188 358.926 353.188 359.316 c h
350.813 359.535 m 353.594 359.535 l 353.813 359.535 353.844 359.535 353.844
 359.316 c 353.844 358.332 353.297 357.363 352.063 357.363 c 350.906 357.363
 349.984 358.395 349.984 359.645 c 349.984 360.973 351.031 361.941 352.172
 361.941 c 353.391 361.941 353.844 360.832 353.844 360.645 c 353.844 360.551
 353.766 360.52 353.703 360.52 c 353.625 360.52 353.594 360.582 353.578 
360.66 c 353.234 361.691 352.328 361.691 352.234 361.691 c 351.734 361.691
 351.344 361.395 351.109 361.02 c 350.813 360.551 350.813 359.895 350.813
 359.535 c h
350.813 359.535 m f
0.637795 w
4 M q 1 0 0 1 0 0 cm
338.57 394.566 m 274.285 414.656 l S Q
280.375 412.754 m 282.047 409.559 l 274.285 414.656 l 283.57 414.43 l h
280.375 412.754 m f*
0.649347 w
q 1 -0.3125 0.3125 1 0 0 cm
137.921 455.854 m 140.353 453.419 l 131.831 455.853 l 140.355 458.29 l 
h
137.921 455.854 m S Q
Q Q
showpage
%%Trailer
end restore
%%EOF
